EESchema Schematic File Version 4
EELAYER 30 0
EELAYER END
$Descr A4 11693 8268
encoding utf-8
Sheet 1 1
Title ""
Date ""
Rev ""
Comp ""
Comment1 ""
Comment2 ""
Comment3 ""
Comment4 ""
$EndDescr
$Comp
L little_temp-rescue:MAX1551-little_temp U2
U 1 1 6043BE70
P 2300 6550
F 0 "U2" H 2300 6915 50  0000 C CNN
F 1 "MAX1551" H 2300 6824 50  0000 C CNN
F 2 "Package_TO_SOT_SMD:SOT-23-5_HandSoldering" H 2300 6550 50  0001 C CNN
F 3 "https://datasheets.maximintegrated.com/en/ds/MAX1551-MAX1555.pdf" H 2300 6550 50  0001 C CNN
F 4 "MAX1555EZK+T" H 2300 6550 50  0001 C CNN "PN"
	1    2300 6550
	1    0    0    -1  
$EndComp
$Comp
L little_temp-rescue:USB_B_Micro-Connector J1
U 1 1 6043BF34
P 850 6850
F 0 "J1" H 905 7317 50  0000 C CNN
F 1 "USB_B_Micro" H 905 7226 50  0000 C CNN
F 2 "Connector_USB:USB_Micro-B_Amphenol_10103594-0001LF_Horizontal" H 1000 6800 50  0001 C CNN
F 3 "~" H 1000 6800 50  0001 C CNN
F 4 "10103594-0001LF" H 850 6850 50  0001 C CNN "PN"
	1    850  6850
	1    0    0    -1  
$EndComp
$Comp
L power:GNDPWR #PWR01
U 1 1 6043C12A
P 750 7350
F 0 "#PWR01" H 750 7150 50  0001 C CNN
F 1 "GNDPWR" H 754 7196 50  0000 C CNN
F 2 "" H 750 7300 50  0001 C CNN
F 3 "" H 750 7300 50  0001 C CNN
	1    750  7350
	1    0    0    -1  
$EndComp
$Comp
L power:GNDPWR #PWR08
U 1 1 6043C14D
P 2300 7350
F 0 "#PWR08" H 2300 7150 50  0001 C CNN
F 1 "GNDPWR" H 2304 7196 50  0000 C CNN
F 2 "" H 2300 7300 50  0001 C CNN
F 3 "" H 2300 7300 50  0001 C CNN
	1    2300 7350
	1    0    0    -1  
$EndComp
Wire Wire Line
	2300 7350 2300 6850
$Comp
L Device:C C21
U 1 1 605D2801
P 8000 1100
F 0 "C21" H 8115 1146 50  0000 L CNN
F 1 "4.7uF" H 8115 1055 50  0000 L CNN
F 2 "Capacitor_SMD:C_0805_2012Metric_Pad1.15x1.40mm_HandSolder" H 8038 950 50  0001 C CNN
F 3 "~" H 8000 1100 50  0001 C CNN
F 4 "GRM219R6YA475KA73D" H 5650 -1700 50  0001 C CNN "PN"
	1    8000 1100
	1    0    0    -1  
$EndComp
$Comp
L Device:C C13
U 1 1 605D2802
P 6650 1100
F 0 "C13" H 6765 1146 50  0000 L CNN
F 1 "0.1uF" H 6765 1055 50  0000 L CNN
F 2 "Capacitor_SMD:C_0603_1608Metric_Pad1.05x0.95mm_HandSolder" H 6688 950 50  0001 C CNN
F 3 "~" H 6650 1100 50  0001 C CNN
F 4 "C0603C104M5RACTU" H 5650 -1700 50  0001 C CNN "PN"
	1    6650 1100
	1    0    0    -1  
$EndComp
$Comp
L Device:Ferrite_Bead_Small FB2
U 1 1 605D2806
P 9550 1350
F 0 "FB2" V 9400 1400 50  0000 R CNN
F 1 "Ferrite_Bead_Small" V 9300 1400 50  0000 R CNN
F 2 "Inductor_SMD:L_0603_1608Metric_Pad1.05x0.95mm_HandSolder" V 9480 1350 50  0001 C CNN
F 3 "~" H 9550 1350 50  0001 C CNN
F 4 "HI0603P600R-10" H 9550 1350 50  0001 C CNN "PN"
	1    9550 1350
	-1   0    0    1   
$EndComp
$Comp
L little_temp-rescue:SW_Push_Dual-Switch-mb_waller_lown-rescue-n64_cart-rescue-clock_therm-rescue SW1
U 1 1 60542035
P 6850 4800
AR Path="/60542035" Ref="SW1"  Part="1" 
AR Path="/5D5E6AA5/60542035" Ref="SW?"  Part="1" 
F 0 "SW1" H 6850 5085 50  0000 C CNN
F 1 "SW_Push_Dual" H 6850 4994 50  0000 C CNN
F 2 "Button_Switch_THT:SW_TH_Tactile_Omron_B3F-10xx" H 6850 5000 50  0001 C CNN
F 3 "" H 6850 5000 50  0001 C CNN
F 4 "FSM4JH" H 6850 4800 50  0001 C CNN "PN"
	1    6850 4800
	1    0    0    -1  
$EndComp
$Comp
L power:GND #PWR037
U 1 1 60ABB5BB
P 6300 5400
F 0 "#PWR037" H 6300 5150 50  0001 C CNN
F 1 "GND" H 6305 5227 50  0000 C CNN
F 2 "" H 6300 5400 50  0001 C CNN
F 3 "" H 6300 5400 50  0001 C CNN
	1    6300 5400
	1    0    0    -1  
$EndComp
Wire Wire Line
	6600 1750 6600 2050
Wire Wire Line
	6600 2050 6700 2050
Wire Wire Line
	7000 2050 7100 2050
Wire Wire Line
	7100 2050 7100 1750
$Comp
L Device:C C15
U 1 1 6054204F
P 6400 2250
F 0 "C15" H 6450 2150 50  0000 L CNN
F 1 "10pF" V 6250 1900 50  0000 L CNN
F 2 "Capacitor_SMD:C_0603_1608Metric_Pad1.05x0.95mm_HandSolder" H 6438 2100 50  0001 C CNN
F 3 "~" H 6400 2250 50  0001 C CNN
F 4 "" H 300 600 50  0001 C CNN "Project"
F 5 "C0603C100M5HACTU" H 5200 -1650 50  0001 C CNN "PN"
	1    6400 2250
	1    0    0    -1  
$EndComp
Wire Wire Line
	6400 2100 6400 2050
Wire Wire Line
	6400 2050 6600 2050
Connection ~ 6600 2050
$Comp
L power:GND #PWR038
U 1 1 60542050
P 6400 2500
F 0 "#PWR038" H 6400 2250 50  0001 C CNN
F 1 "GND" H 6405 2327 50  0000 C CNN
F 2 "" H 6400 2500 50  0001 C CNN
F 3 "" H 6400 2500 50  0001 C CNN
	1    6400 2500
	1    0    0    -1  
$EndComp
Wire Wire Line
	6400 2400 6400 2500
$Comp
L Device:C C20
U 1 1 60542036
P 7300 2250
F 0 "C20" H 7100 2150 50  0000 L CNN
F 1 "10pF" V 7500 1900 50  0000 L CNN
F 2 "Capacitor_SMD:C_0603_1608Metric_Pad1.05x0.95mm_HandSolder" H 7338 2100 50  0001 C CNN
F 3 "~" H 7300 2250 50  0001 C CNN
F 4 "" H 300 600 50  0001 C CNN "Project"
F 5 "C0603C100M5HACTU" H 5200 -1650 50  0001 C CNN "PN"
	1    7300 2250
	1    0    0    -1  
$EndComp
$Comp
L power:GND #PWR043
U 1 1 60542037
P 7300 2500
F 0 "#PWR043" H 7300 2250 50  0001 C CNN
F 1 "GND" H 7305 2327 50  0000 C CNN
F 2 "" H 7300 2500 50  0001 C CNN
F 3 "" H 7300 2500 50  0001 C CNN
	1    7300 2500
	1    0    0    -1  
$EndComp
Wire Wire Line
	7300 2400 7300 2500
Wire Wire Line
	7300 2100 7300 2050
Wire Wire Line
	7300 2050 7100 2050
Connection ~ 7100 2050
$Comp
L Device:C C?
U 1 1 60542033
P 6300 5150
AR Path="/5D05FDE3/60542033" Ref="C?"  Part="1" 
AR Path="/5E1040B5/60542033" Ref="C?"  Part="1" 
AR Path="/5D5E6AA5/60542033" Ref="C?"  Part="1" 
AR Path="/60542033" Ref="C14"  Part="1" 
F 0 "C14" H 6415 5196 50  0000 L CNN
F 1 "0.1uF" H 6415 5105 50  0000 L CNN
F 2 "Capacitor_SMD:C_0603_1608Metric_Pad1.05x0.95mm_HandSolder" H 6338 5000 50  0001 C CNN
F 3 "~" H 6300 5150 50  0001 C CNN
F 4 "C0603C104M5RACTU" H 6300 5150 50  0001 C CNN "PN"
F 5 "" H -3950 3400 50  0001 C CNN "Project"
	1    6300 5150
	1    0    0    -1  
$EndComp
Text Label 6150 1750 0    39   ~ 0
MCU_HCLK_IN
Text Label 7600 1750 2    39   ~ 0
MCU_HCLK_OUT
Wire Wire Line
	6150 1750 6600 1750
Wire Wire Line
	7100 1750 7600 1750
Text Label 6100 4800 0    39   ~ 0
~RESET
$Comp
L Connector_Generic:Conn_02x03_Odd_Even J3
U 1 1 6054203C
P 8200 5450
F 0 "J3" H 8250 5767 50  0000 C CNN
F 1 "Conn_02x03_Odd_Even" H 8250 5676 50  0000 C CNN
F 2 "Connector_PinHeader_2.54mm:PinHeader_2x03_P2.54mm_Vertical" H 8200 5450 50  0001 C CNN
F 3 "~" H 8200 5450 50  0001 C CNN
	1    8200 5450
	1    0    0    -1  
$EndComp
$Comp
L power:+3V3 #PWR049
U 1 1 6054203D
P 8750 5300
F 0 "#PWR049" H 8750 5150 50  0001 C CNN
F 1 "+3V3" H 8765 5473 50  0000 C CNN
F 2 "" H 8750 5300 50  0001 C CNN
F 3 "" H 8750 5300 50  0001 C CNN
	1    8750 5300
	1    0    0    -1  
$EndComp
$Comp
L power:GND #PWR050
U 1 1 6054203E
P 8750 5600
F 0 "#PWR050" H 8750 5350 50  0001 C CNN
F 1 "GND" H 8755 5427 50  0000 C CNN
F 2 "" H 8750 5600 50  0001 C CNN
F 3 "" H 8750 5600 50  0001 C CNN
	1    8750 5600
	1    0    0    -1  
$EndComp
Wire Wire Line
	8750 5600 8750 5550
Wire Wire Line
	8750 5550 8500 5550
Wire Wire Line
	8500 5350 8750 5350
Wire Wire Line
	8750 5350 8750 5300
Text Label 7700 5350 0    39   ~ 0
SWCLK
Text Label 7700 5450 0    39   ~ 0
SWDIO
Text Label 7700 5550 0    39   ~ 0
~RESET
Wire Wire Line
	7700 5350 8000 5350
Wire Wire Line
	7700 5450 8000 5450
Wire Wire Line
	8000 5550 7700 5550
$Comp
L Device:LED D1
U 1 1 6054203A
P 8700 850
F 0 "D1" H 8700 650 50  0000 C CNN
F 1 "LED" H 8700 750 50  0000 C CNN
F 2 "Diode_SMD:D_0805_2012Metric_Pad1.15x1.40mm_HandSolder" H 8700 850 50  0001 C CNN
F 3 "~" H 8700 850 50  0001 C CNN
F 4 "150080VS75000" H 5400 -1700 50  0001 C CNN "PN"
	1    8700 850 
	-1   0    0    1   
$EndComp
$Comp
L Device:R R8
U 1 1 6054203B
P 9050 850
F 0 "R8" H 9120 896 50  0000 L CNN
F 1 "330" H 9120 805 50  0000 L CNN
F 2 "Resistor_SMD:R_0603_1608Metric_Pad1.05x0.95mm_HandSolder" V 8980 850 50  0001 C CNN
F 3 "~" H 9050 850 50  0001 C CNN
F 4 "ERJ-3EKF3300V" H 5400 -1700 50  0001 C CNN "PN"
	1    9050 850 
	0    1    1    0   
$EndComp
$Comp
L power:GND #PWR051
U 1 1 6054203F
P 9250 900
F 0 "#PWR051" H 9250 650 50  0001 C CNN
F 1 "GND" H 9255 727 50  0000 C CNN
F 2 "" H 9250 900 50  0001 C CNN
F 3 "" H 9250 900 50  0001 C CNN
	1    9250 900 
	1    0    0    -1  
$EndComp
Wire Wire Line
	9250 900  9250 850 
Wire Wire Line
	9250 850  9200 850 
Wire Wire Line
	8900 850  8850 850 
NoConn ~ 8500 5450
Wire Wire Line
	6100 4800 6300 4800
Wire Wire Line
	6300 5000 6300 4800
Connection ~ 6300 4800
Wire Wire Line
	6300 4800 6550 4800
Wire Wire Line
	6300 5300 6300 5350
Wire Wire Line
	6300 5350 6600 5350
Wire Wire Line
	6600 5350 6600 5000
Wire Wire Line
	6600 5000 6650 5000
Connection ~ 6300 5350
Wire Wire Line
	6300 5350 6300 5400
Wire Wire Line
	7050 5000 7100 5000
Wire Wire Line
	7100 5000 7100 5350
Wire Wire Line
	7100 5350 6600 5350
Connection ~ 6600 5350
Wire Wire Line
	7050 4800 7200 4800
Wire Wire Line
	7200 4800 7200 4450
Wire Wire Line
	7200 4450 6550 4450
Wire Wire Line
	6550 4450 6550 4800
Connection ~ 6550 4800
Wire Wire Line
	6550 4800 6650 4800
$Comp
L power:+3V3 #PWR052
U 1 1 605D2813
P 9150 1600
F 0 "#PWR052" H 9150 1450 50  0001 C CNN
F 1 "+3V3" H 9165 1773 50  0000 C CNN
F 2 "" H 9150 1600 50  0001 C CNN
F 3 "" H 9150 1600 50  0001 C CNN
	1    9150 1600
	1    0    0    -1  
$EndComp
Wire Wire Line
	9150 1600 9150 1650
Wire Wire Line
	9150 1650 9250 1650
Connection ~ 9150 1650
Wire Wire Line
	9150 1650 9150 1700
Wire Wire Line
	9250 1700 9250 1650
Connection ~ 9250 1650
Wire Wire Line
	9250 1650 9350 1650
Wire Wire Line
	9350 1700 9350 1650
Text Label 8100 2300 0    39   ~ 0
MCU_HCLK_IN
Text Label 8100 2400 0    39   ~ 0
MCU_HCLK_OUT
$Comp
L Device:Crystal_GND24 Y1
U 1 1 605D2814
P 6850 2050
F 0 "Y1" V 7041 2096 50  0000 L CNN
F 1 "8MHz" H 6500 1950 50  0000 L CNN
F 2 "Crystal:Crystal_SMD_EuroQuartz_MJ-4Pin_5.0x3.2mm_HandSoldering" H 6850 2050 50  0001 C CNN
F 3 "" H 6850 2050 50  0001 C CNN
F 4 "" H -1350 600 50  0001 C CNN "Project"
F 5 "ABM3BAIG-8.000MHZ-1Z-T" V 6850 2050 50  0001 C CNN "PN"
	1    6850 2050
	1    0    0    -1  
$EndComp
Wire Wire Line
	8100 2300 8650 2300
Wire Wire Line
	8650 2400 8100 2400
Text Label 8100 1900 0    39   ~ 0
~RESET
Wire Wire Line
	8100 1900 8650 1900
$Comp
L Device:R R5
U 1 1 60542043
P 7900 2300
F 0 "R5" H 7970 2346 50  0000 L CNN
F 1 "10k" H 7970 2255 50  0000 L CNN
F 2 "Resistor_SMD:R_0603_1608Metric_Pad1.05x0.95mm_HandSolder" V 7830 2300 50  0001 C CNN
F 3 "~" H 7900 2300 50  0001 C CNN
F 4 "ERA-3VRW1002V" H 5250 -1650 50  0001 C CNN "PN"
	1    7900 2300
	-1   0    0    1   
$EndComp
$Comp
L Device:R R4
U 1 1 60542044
P 7900 1900
F 0 "R4" H 7970 1946 50  0000 L CNN
F 1 "DNM" H 7970 1855 50  0000 L CNN
F 2 "Resistor_SMD:R_0603_1608Metric_Pad1.05x0.95mm_HandSolder" V 7830 1900 50  0001 C CNN
F 3 "~" H 7900 1900 50  0001 C CNN
	1    7900 1900
	-1   0    0    1   
$EndComp
$Comp
L power:+3V3 #PWR044
U 1 1 605D2815
P 7900 1700
F 0 "#PWR044" H 7900 1550 50  0001 C CNN
F 1 "+3V3" H 7915 1873 50  0000 C CNN
F 2 "" H 7900 1700 50  0001 C CNN
F 3 "" H 7900 1700 50  0001 C CNN
	1    7900 1700
	1    0    0    -1  
$EndComp
Wire Wire Line
	7900 1700 7900 1750
$Comp
L power:GND #PWR045
U 1 1 605D2816
P 7900 2500
F 0 "#PWR045" H 7900 2250 50  0001 C CNN
F 1 "GND" H 7905 2327 50  0000 C CNN
F 2 "" H 7900 2500 50  0001 C CNN
F 3 "" H 7900 2500 50  0001 C CNN
	1    7900 2500
	1    0    0    -1  
$EndComp
Wire Wire Line
	7900 2500 7900 2450
$Comp
L power:GND #PWR053
U 1 1 605D2817
P 9150 4800
F 0 "#PWR053" H 9150 4550 50  0001 C CNN
F 1 "GND" H 9155 4627 50  0000 C CNN
F 2 "" H 9150 4800 50  0001 C CNN
F 3 "" H 9150 4800 50  0001 C CNN
	1    9150 4800
	1    0    0    -1  
$EndComp
Wire Wire Line
	9150 4800 9150 4750
Wire Wire Line
	9250 4700 9250 4750
Wire Wire Line
	9150 4750 9150 4700
Wire Wire Line
	9350 4700 9350 4750
$Comp
L Device:C C17
U 1 1 605D2818
P 7100 1100
F 0 "C17" H 7215 1146 50  0000 L CNN
F 1 "0.1uF" H 7215 1055 50  0000 L CNN
F 2 "Capacitor_SMD:C_0603_1608Metric_Pad1.05x0.95mm_HandSolder" H 7138 950 50  0001 C CNN
F 3 "~" H 7100 1100 50  0001 C CNN
F 4 "C0603C104M5RACTU" H 5650 -1700 50  0001 C CNN "PN"
	1    7100 1100
	1    0    0    -1  
$EndComp
$Comp
L Device:C C18
U 1 1 60542049
P 7550 1100
F 0 "C18" H 7665 1146 50  0000 L CNN
F 1 "0.1uF" H 7665 1055 50  0000 L CNN
F 2 "Capacitor_SMD:C_0603_1608Metric_Pad1.05x0.95mm_HandSolder" H 7588 950 50  0001 C CNN
F 3 "~" H 7550 1100 50  0001 C CNN
F 4 "C0603C104M5RACTU" H 5650 -1700 50  0001 C CNN "PN"
	1    7550 1100
	1    0    0    -1  
$EndComp
$Comp
L Device:C C22
U 1 1 6054204A
P 10000 1750
F 0 "C22" H 10115 1796 50  0000 L CNN
F 1 "0.1uF" H 10115 1705 50  0000 L CNN
F 2 "Capacitor_SMD:C_0603_1608Metric_Pad1.05x0.95mm_HandSolder" H 10038 1600 50  0001 C CNN
F 3 "~" H 10000 1750 50  0001 C CNN
F 4 "C0603C104M5RACTU" H 4900 -1650 50  0001 C CNN "PN"
	1    10000 1750
	1    0    0    -1  
$EndComp
$Comp
L power:+3V3 #PWR035
U 1 1 6054204B
P 6200 850
F 0 "#PWR035" H 6200 700 50  0001 C CNN
F 1 "+3V3" H 6215 1023 50  0000 C CNN
F 2 "" H 6200 850 50  0001 C CNN
F 3 "" H 6200 850 50  0001 C CNN
	1    6200 850 
	1    0    0    -1  
$EndComp
$Comp
L power:GND #PWR036
U 1 1 605D2819
P 6200 1350
F 0 "#PWR036" H 6200 1100 50  0001 C CNN
F 1 "GND" H 6205 1177 50  0000 C CNN
F 2 "" H 6200 1350 50  0001 C CNN
F 3 "" H 6200 1350 50  0001 C CNN
	1    6200 1350
	1    0    0    -1  
$EndComp
Wire Wire Line
	6650 1250 6650 1300
Wire Wire Line
	6650 900  7100 900 
Wire Wire Line
	6650 900  6650 950 
Wire Wire Line
	8000 950  8000 900 
Wire Wire Line
	7550 950  7550 900 
Wire Wire Line
	7100 950  7100 900 
Connection ~ 7100 900 
Wire Wire Line
	7100 900  7550 900 
Wire Wire Line
	6650 1300 7100 1300
Wire Wire Line
	6200 1300 6200 1350
Wire Wire Line
	8000 1250 8000 1300
Wire Wire Line
	7550 1250 7550 1300
Wire Wire Line
	7100 1250 7100 1300
Connection ~ 7100 1300
Wire Wire Line
	7100 1300 7550 1300
Text Notes 7150 1000 0    39   ~ 0
PIN 36
Text Notes 6700 1000 0    39   ~ 0
PIN 24
Text Notes 7600 1000 0    39   ~ 0
PIN 48
Wire Wire Line
	9550 1700 9550 1550
$Comp
L power:+3V3 #PWR054
U 1 1 605D281A
P 9550 1200
F 0 "#PWR054" H 9550 1050 50  0001 C CNN
F 1 "+3V3" H 9565 1373 50  0000 C CNN
F 2 "" H 9550 1200 50  0001 C CNN
F 3 "" H 9550 1200 50  0001 C CNN
	1    9550 1200
	1    0    0    -1  
$EndComp
Wire Wire Line
	9550 1200 9550 1250
Wire Wire Line
	7550 900  8000 900 
Connection ~ 7550 900 
Wire Wire Line
	8000 1300 7550 1300
Connection ~ 7550 1300
$Comp
L power:GND #PWR055
U 1 1 605D281B
P 10000 1950
F 0 "#PWR055" H 10000 1700 50  0001 C CNN
F 1 "GND" H 10005 1777 50  0000 C CNN
F 2 "" H 10000 1950 50  0001 C CNN
F 3 "" H 10000 1950 50  0001 C CNN
	1    10000 1950
	1    0    0    -1  
$EndComp
Wire Wire Line
	10000 1600 10000 1550
Wire Wire Line
	10000 1550 9550 1550
Connection ~ 9550 1550
Wire Wire Line
	9550 1550 9550 1450
Wire Wire Line
	8100 3800 8650 3800
Wire Wire Line
	8650 3900 8100 3900
Text Label 10300 3700 2    39   ~ 0
TEMP_OUT
Wire Notes Line
	6050 5850 6050 550 
Text Label 8350 850  0    39   ~ 0
LED_1
Text Notes 6050 550  0    39   ~ 0
MCU
$Comp
L power:GND #PWR041
U 1 1 605D280E
P 6850 2500
F 0 "#PWR041" H 6850 2250 50  0001 C CNN
F 1 "GND" H 6855 2327 50  0000 C CNN
F 2 "" H 6850 2500 50  0001 C CNN
F 3 "" H 6850 2500 50  0001 C CNN
	1    6850 2500
	1    0    0    -1  
$EndComp
$Comp
L power:GND #PWR040
U 1 1 6054202C
P 6850 1750
F 0 "#PWR040" H 6850 1500 50  0001 C CNN
F 1 "GND" H 6855 1577 50  0000 C CNN
F 2 "" H 6850 1750 50  0001 C CNN
F 3 "" H 6850 1750 50  0001 C CNN
	1    6850 1750
	-1   0    0    1   
$EndComp
Wire Wire Line
	6850 1750 6850 1850
Wire Wire Line
	6850 2250 6850 2500
$Comp
L Connector:TestPoint TP6
U 1 1 60542031
P 10000 1200
F 0 "TP6" H 10058 1320 50  0000 L CNN
F 1 "VDDA" H 10058 1229 50  0000 L CNN
F 2 "TestPoint:TestPoint_Pad_1.0x1.0mm" H 10200 1200 50  0001 C CNN
F 3 "~" H 10200 1200 50  0001 C CNN
	1    10000 1200
	1    0    0    -1  
$EndComp
Wire Wire Line
	10000 1200 10000 1550
Connection ~ 10000 1550
$Comp
L Connector:TestPoint TP5
U 1 1 60542032
P 10600 3500
F 0 "TP5" H 10400 3600 50  0000 L CNN
F 1 "TEMP" H 10350 3500 50  0000 L CNN
F 2 "TestPoint:TestPoint_Pad_1.0x1.0mm" H 10800 3500 50  0001 C CNN
F 3 "~" H 10800 3500 50  0001 C CNN
	1    10600 3500
	1    0    0    -1  
$EndComp
$Comp
L Device:C C4
U 1 1 604B911F
P 1650 6850
F 0 "C4" H 1765 6896 50  0000 L CNN
F 1 "4.7uF" H 1765 6805 50  0000 L CNN
F 2 "Capacitor_SMD:C_0805_2012Metric_Pad1.15x1.40mm_HandSolder" H 1688 6700 50  0001 C CNN
F 3 "~" H 1650 6850 50  0001 C CNN
F 4 "GRM219R6YA475KA73D" H -700 4050 50  0001 C CNN "PN"
	1    1650 6850
	1    0    0    -1  
$EndComp
Wire Wire Line
	750  7350 750  7300
Wire Wire Line
	750  7300 850  7300
Wire Wire Line
	850  7300 850  7250
Connection ~ 750  7300
Wire Wire Line
	750  7300 750  7250
$Comp
L power:GNDPWR #PWR06
U 1 1 604CD746
P 1650 7350
F 0 "#PWR06" H 1650 7150 50  0001 C CNN
F 1 "GNDPWR" H 1654 7196 50  0000 C CNN
F 2 "" H 1650 7300 50  0001 C CNN
F 3 "" H 1650 7300 50  0001 C CNN
	1    1650 7350
	1    0    0    -1  
$EndComp
Wire Wire Line
	1650 7350 1650 7000
$Comp
L Device:C C5
U 1 1 604D1832
P 3100 6850
F 0 "C5" H 3215 6896 50  0000 L CNN
F 1 "4.7uF" H 3215 6805 50  0000 L CNN
F 2 "Capacitor_SMD:C_0805_2012Metric_Pad1.15x1.40mm_HandSolder" H 3138 6700 50  0001 C CNN
F 3 "~" H 3100 6850 50  0001 C CNN
F 4 "GRM219R6YA475KA73D" H 750 4050 50  0001 C CNN "PN"
	1    3100 6850
	1    0    0    -1  
$EndComp
Wire Wire Line
	3100 6450 3100 6700
Wire Wire Line
	3100 7350 3100 7000
NoConn ~ 1750 6450
$Comp
L Connector:TestPoint TP1
U 1 1 604DF430
P 1650 6200
F 0 "TP1" H 1708 6320 50  0000 L CNN
F 1 "VBUS" H 1708 6229 50  0000 L CNN
F 2 "TestPoint:TestPoint_Pad_D1.0mm" H 1850 6200 50  0001 C CNN
F 3 "~" H 1850 6200 50  0001 C CNN
	1    1650 6200
	1    0    0    -1  
$EndComp
$Comp
L Connector:TestPoint TP2
U 1 1 604E39CD
P 3100 6200
F 0 "TP2" H 3158 6320 50  0000 L CNN
F 1 "VBAT" H 3158 6229 50  0000 L CNN
F 2 "TestPoint:TestPoint_Pad_D1.0mm" H 3300 6200 50  0001 C CNN
F 3 "~" H 3300 6200 50  0001 C CNN
	1    3100 6200
	1    0    0    -1  
$EndComp
Wire Wire Line
	3100 6200 3100 6450
Connection ~ 3100 6450
Text Label 3000 6650 2    39   ~ 0
~CHG
Wire Wire Line
	2850 6650 3000 6650
$Comp
L Connector:Conn_01x02_Female J2
U 1 1 604FF3B6
P 3800 6800
F 0 "J2" H 3828 6776 50  0000 L CNN
F 1 "BATT" H 3828 6685 50  0000 L CNN
F 2 "Connector_PinHeader_2.54mm:PinHeader_1x02_P2.54mm_Vertical" H 3800 6800 50  0001 C CNN
F 3 "~" H 3800 6800 50  0001 C CNN
	1    3800 6800
	1    0    0    -1  
$EndComp
Wire Wire Line
	3100 6450 3550 6450
Wire Wire Line
	3550 6450 3550 6800
Wire Wire Line
	3550 6800 3600 6800
Wire Wire Line
	3550 6900 3600 6900
Connection ~ 3550 6450
$Comp
L power:+BATT #PWR016
U 1 1 60522F6D
P 3550 6200
F 0 "#PWR016" H 3550 6050 50  0001 C CNN
F 1 "+BATT" H 3565 6373 50  0000 C CNN
F 2 "" H 3550 6200 50  0001 C CNN
F 3 "" H 3550 6200 50  0001 C CNN
	1    3550 6200
	1    0    0    -1  
$EndComp
Wire Wire Line
	3550 6200 3550 6450
$Comp
L Device:R R2
U 1 1 6052D481
P 4200 6750
F 0 "R2" H 4270 6796 50  0000 L CNN
F 1 "402k" H 4270 6705 50  0000 L CNN
F 2 "Resistor_SMD:R_0603_1608Metric_Pad1.05x0.95mm_HandSolder" V 4130 6750 50  0001 C CNN
F 3 "~" H 4200 6750 50  0001 C CNN
F 4 "CRCW0603402KFKEA" H 5500 6800 50  0001 C CNN "PN"
	1    4200 6750
	1    0    0    -1  
$EndComp
$Comp
L Device:R R3
U 1 1 6052D4E7
P 4200 7150
F 0 "R3" H 4270 7196 50  0000 L CNN
F 1 "44.2k" H 4270 7105 50  0000 L CNN
F 2 "Resistor_SMD:R_0603_1608Metric_Pad1.05x0.95mm_HandSolder" V 4130 7150 50  0001 C CNN
F 3 "~" H 4200 7150 50  0001 C CNN
F 4 "CR0603-FX-4422ELF" H 5500 6800 50  0001 C CNN "PN"
	1    4200 7150
	1    0    0    -1  
$EndComp
Text Label 4700 6950 2    39   ~ 0
BATT_SENSE
Wire Wire Line
	4700 6950 4200 6950
Wire Wire Line
	4200 6950 4200 6900
Wire Wire Line
	4200 6950 4200 7000
Connection ~ 4200 6950
Wire Wire Line
	3550 6450 4200 6450
Wire Wire Line
	4200 6450 4200 6600
Text Notes 3600 6700 0    39   ~ 0
SLK: PIN 1 AS\nPOSITIVE
$Comp
L power:+3V3 #PWR033
U 1 1 609E114C
P 5500 1500
F 0 "#PWR033" H 5500 1350 50  0001 C CNN
F 1 "+3V3" H 5515 1673 50  0000 C CNN
F 2 "" H 5500 1500 50  0001 C CNN
F 3 "" H 5500 1500 50  0001 C CNN
	1    5500 1500
	1    0    0    -1  
$EndComp
Text Notes 3300 550  0    39   ~ 0
POWER SUPPLY
$Comp
L Connector:TestPoint TP4
U 1 1 605D280F
P 5200 1150
F 0 "TP4" H 5258 1270 50  0000 L CNN
F 1 "SUPPLY" H 5258 1179 50  0000 L CNN
F 2 "TestPoint:TestPoint_Pad_1.0x1.0mm" H 5400 1150 50  0001 C CNN
F 3 "~" H 5400 1150 50  0001 C CNN
	1    5200 1150
	1    0    0    -1  
$EndComp
Wire Wire Line
	5200 1150 5200 1550
$Comp
L Connector:TestPoint TP3
U 1 1 609E1156
P 5650 800
F 0 "TP3" H 5708 920 50  0000 L CNN
F 1 "GND" H 5708 829 50  0000 L CNN
F 2 "TestPoint:TestPoint_Pad_1.0x1.0mm" H 5850 800 50  0001 C CNN
F 3 "~" H 5850 800 50  0001 C CNN
	1    5650 800 
	1    0    0    -1  
$EndComp
$Comp
L power:GND #PWR026
U 1 1 605D2812
P 5650 850
F 0 "#PWR026" H 5650 600 50  0001 C CNN
F 1 "GND" H 5655 677 50  0000 C CNN
F 2 "" H 5650 850 50  0001 C CNN
F 3 "" H 5650 850 50  0001 C CNN
	1    5650 850 
	1    0    0    -1  
$EndComp
Wire Wire Line
	5650 850  5650 800 
$Comp
L power:+BATT #PWR011
U 1 1 60579543
P 4250 800
F 0 "#PWR011" H 4250 650 50  0001 C CNN
F 1 "+BATT" H 4265 973 50  0000 C CNN
F 2 "" H 4250 800 50  0001 C CNN
F 3 "" H 4250 800 50  0001 C CNN
	1    4250 800 
	1    0    0    -1  
$EndComp
$Comp
L power:GND #PWR012
U 1 1 60587913
P 3100 7350
F 0 "#PWR012" H 3100 7100 50  0001 C CNN
F 1 "GND" H 3105 7177 50  0000 C CNN
F 2 "" H 3100 7350 50  0001 C CNN
F 3 "" H 3100 7350 50  0001 C CNN
	1    3100 7350
	1    0    0    -1  
$EndComp
$Comp
L power:GND #PWR017
U 1 1 6058796E
P 3550 7350
F 0 "#PWR017" H 3550 7100 50  0001 C CNN
F 1 "GND" H 3555 7177 50  0000 C CNN
F 2 "" H 3550 7350 50  0001 C CNN
F 3 "" H 3550 7350 50  0001 C CNN
	1    3550 7350
	1    0    0    -1  
$EndComp
$Comp
L power:GNDPWR #PWR09
U 1 1 605AF9E3
P 2600 7250
F 0 "#PWR09" H 2600 7050 50  0001 C CNN
F 1 "GNDPWR" H 2604 7096 50  0000 C CNN
F 2 "" H 2600 7200 50  0001 C CNN
F 3 "" H 2600 7200 50  0001 C CNN
	1    2600 7250
	0    1    1    0   
$EndComp
$Comp
L power:GND #PWR010
U 1 1 605AFA3C
P 2700 7250
F 0 "#PWR010" H 2700 7000 50  0001 C CNN
F 1 "GND" H 2705 7077 50  0000 C CNN
F 2 "" H 2700 7250 50  0001 C CNN
F 3 "" H 2700 7250 50  0001 C CNN
	1    2700 7250
	0    -1   -1   0   
$EndComp
$Comp
L Device:Ferrite_Bead_Small FB1
U 1 1 605AFE8C
P 1350 6650
F 0 "FB1" V 1500 6700 50  0000 R CNN
F 1 "VBUSF" V 1600 6750 50  0000 R CNN
F 2 "Inductor_SMD:L_0603_1608Metric_Pad1.05x0.95mm_HandSolder" V 1280 6650 50  0001 C CNN
F 3 "~" H 1350 6650 50  0001 C CNN
F 4 "HI0603P600R-10" H 1350 6650 50  0001 C CNN "PN"
	1    1350 6650
	0    -1   -1   0   
$EndComp
Text Notes 550  5950 0    39   ~ 0
POWER SUPPLY
Text Notes 7250 4950 0    39   ~ 0
REVIEW:\nRST BTN WRONG!
$Comp
L little_temp-rescue:TC1047VNBTR-sensors U6
U 1 1 609E114E
P 4550 3250
F 0 "U6" H 4550 3501 39  0000 C CNN
F 1 "TC1047VNBTR" H 4550 3426 39  0000 C CNN
F 2 "Package_TO_SOT_SMD:SOT-23_Handsoldering" H 4550 3250 39  0001 C CNN
F 3 "" H 4550 3250 39  0001 C CNN
F 4 "TC1047VNBTR" H -4450 2050 50  0001 C CNN "PN"
	1    4550 3250
	1    0    0    -1  
$EndComp
$Comp
L Device:C C8
U 1 1 609E1150
P 4200 3400
F 0 "C8" H 3950 3450 50  0000 L CNN
F 1 "0.1uF" H 3850 3350 50  0000 L CNN
F 2 "Capacitor_SMD:C_0603_1608Metric_Pad1.05x0.95mm_HandSolder" H 4238 3250 50  0001 C CNN
F 3 "~" H 4200 3400 50  0001 C CNN
F 4 "C0603C104M5RACTU" H -4450 2050 50  0001 C CNN "PN"
	1    4200 3400
	1    0    0    -1  
$EndComp
$Comp
L Device:C C9
U 1 1 609E114F
P 4900 3400
F 0 "C9" H 5015 3446 50  0000 L CNN
F 1 "0.1uF" H 5015 3355 50  0000 L CNN
F 2 "Capacitor_SMD:C_0603_1608Metric_Pad1.05x0.95mm_HandSolder" H 4938 3250 50  0001 C CNN
F 3 "~" H 4900 3400 50  0001 C CNN
F 4 "C0603C104M5RACTU" H -4450 2050 50  0001 C CNN "PN"
	1    4900 3400
	1    0    0    -1  
$EndComp
Wire Wire Line
	4200 3250 4200 3200
Wire Wire Line
	4200 3200 4250 3200
$Comp
L power:GND #PWR024
U 1 1 609E1151
P 4550 3600
F 0 "#PWR024" H 4550 3350 50  0001 C CNN
F 1 "GND" H 4555 3427 50  0000 C CNN
F 2 "" H 4550 3600 50  0001 C CNN
F 3 "" H 4550 3600 50  0001 C CNN
	1    4550 3600
	1    0    0    -1  
$EndComp
$Comp
L power:GND #PWR022
U 1 1 60ABB5AF
P 4200 3600
F 0 "#PWR022" H 4200 3350 50  0001 C CNN
F 1 "GND" H 4205 3427 50  0000 C CNN
F 2 "" H 4200 3600 50  0001 C CNN
F 3 "" H 4200 3600 50  0001 C CNN
	1    4200 3600
	1    0    0    -1  
$EndComp
$Comp
L power:GND #PWR027
U 1 1 5DC4D4EA
P 4900 3600
F 0 "#PWR027" H 4900 3350 50  0001 C CNN
F 1 "GND" H 4905 3427 50  0000 C CNN
F 2 "" H 4900 3600 50  0001 C CNN
F 3 "" H 4900 3600 50  0001 C CNN
	1    4900 3600
	1    0    0    -1  
$EndComp
Wire Wire Line
	4900 3600 4900 3550
Wire Wire Line
	4550 3550 4550 3600
Wire Wire Line
	4200 3550 4200 3600
Wire Wire Line
	4850 3200 4900 3200
Wire Wire Line
	4900 3200 4900 3250
$Comp
L power:+3V3 #PWR021
U 1 1 5DC6AB9E
P 4200 3100
F 0 "#PWR021" H 4200 2950 50  0001 C CNN
F 1 "+3V3" H 4215 3273 50  0000 C CNN
F 2 "" H 4200 3100 50  0001 C CNN
F 3 "" H 4200 3100 50  0001 C CNN
	1    4200 3100
	1    0    0    -1  
$EndComp
Wire Wire Line
	4200 3100 4200 3200
Connection ~ 4200 3200
Text Label 5200 3200 2    39   ~ 0
TEMP_OUT
Wire Wire Line
	5200 3200 4900 3200
Connection ~ 4900 3200
$Comp
L Device:C C2
U 1 1 606170F8
P 1200 1100
F 0 "C2" H 1315 1146 50  0000 L CNN
F 1 "22uF" H 1315 1055 50  0000 L CNN
F 2 "Capacitor_SMD:C_0805_2012Metric_Pad1.15x1.40mm_HandSolder" H 1238 950 50  0001 C CNN
F 3 "~" H 1200 1100 50  0001 C CNN
F 4 "GRM21BR60J226ME39L" H -1150 -1700 50  0001 C CNN "PN"
	1    1200 1100
	1    0    0    -1  
$EndComp
$Comp
L Device:C C3
U 1 1 6061738B
P 1650 1100
F 0 "C3" H 1765 1146 50  0000 L CNN
F 1 "0.1uF" H 1765 1055 50  0000 L CNN
F 2 "Capacitor_SMD:C_0603_1608Metric_Pad1.05x0.95mm_HandSolder" H 1688 950 50  0001 C CNN
F 3 "~" H 1650 1100 50  0001 C CNN
F 4 "C0603C104M5RACTU" H 200 -1700 50  0001 C CNN "PN"
	1    1650 1100
	1    0    0    -1  
$EndComp
$Comp
L power:+3V3 #PWR04
U 1 1 60617AE2
P 1200 850
F 0 "#PWR04" H 1200 700 50  0001 C CNN
F 1 "+3V3" H 1215 1023 50  0000 C CNN
F 2 "" H 1200 850 50  0001 C CNN
F 3 "" H 1200 850 50  0001 C CNN
	1    1200 850 
	1    0    0    -1  
$EndComp
$Comp
L power:GND #PWR05
U 1 1 60617D63
P 1200 1350
F 0 "#PWR05" H 1200 1100 50  0001 C CNN
F 1 "GND" H 1205 1177 50  0000 C CNN
F 2 "" H 1200 1350 50  0001 C CNN
F 3 "" H 1200 1350 50  0001 C CNN
	1    1200 1350
	1    0    0    -1  
$EndComp
Wire Wire Line
	1200 1250 1200 1300
Wire Wire Line
	1200 850  1200 900 
Wire Wire Line
	1200 1300 1650 1300
Wire Wire Line
	1650 1300 1650 1250
Connection ~ 1200 1300
Wire Wire Line
	1200 1300 1200 1350
Wire Wire Line
	1200 900  1650 900 
Wire Wire Line
	1650 900  1650 950 
Connection ~ 1200 900 
Wire Wire Line
	1200 900  1200 950 
Connection ~ 1650 900 
Wire Wire Line
	2100 1400 2100 900 
Wire Wire Line
	1650 900  2100 900 
Wire Wire Line
	2100 4250 2100 4200
Text Label 3050 1700 2    39   ~ 0
UART_RX
Text Label 3050 1900 2    39   ~ 0
UART_TX
Text Label 10300 3300 2    39   ~ 0
UART_RX
Text Label 10300 3200 2    39   ~ 0
UART_TX
Text Label 8100 3100 0    39   ~ 0
BATT_SENSE
$Comp
L Device:C C1
U 1 1 6070FE03
P 800 1800
F 0 "C1" H 915 1846 50  0000 L CNN
F 1 "0.1uF" H 915 1755 50  0000 L CNN
F 2 "Capacitor_SMD:C_0603_1608Metric_Pad1.05x0.95mm_HandSolder" H 838 1650 50  0001 C CNN
F 3 "~" H 800 1800 50  0001 C CNN
F 4 "C0603C104M5RACTU" H -1100 -1000 50  0001 C CNN "PN"
	1    800  1800
	1    0    0    -1  
$EndComp
$Comp
L Device:R R1
U 1 1 60712442
P 800 1400
F 0 "R1" H 870 1446 50  0000 L CNN
F 1 "10k" H 870 1355 50  0000 L CNN
F 2 "Resistor_SMD:R_0603_1608Metric_Pad1.05x0.95mm_HandSolder" V 730 1400 50  0001 C CNN
F 3 "~" H 800 1400 50  0001 C CNN
F 4 "RC0603FR-0710KL" H -1850 -2550 50  0001 C CNN "PN"
	1    800  1400
	-1   0    0    1   
$EndComp
Wire Wire Line
	800  1550 800  1600
Wire Wire Line
	800  1600 1500 1600
Connection ~ 800  1600
Wire Wire Line
	800  1600 800  1650
Text Label 850  1600 0    39   ~ 0
ESP32_EN
$Comp
L power:GND #PWR03
U 1 1 6071FDC4
P 800 2000
F 0 "#PWR03" H 800 1750 50  0001 C CNN
F 1 "GND" H 805 1827 50  0000 C CNN
F 2 "" H 800 2000 50  0001 C CNN
F 3 "" H 800 2000 50  0001 C CNN
	1    800  2000
	1    0    0    -1  
$EndComp
Wire Wire Line
	800  2000 800  1950
$Comp
L power:+3V3 #PWR02
U 1 1 60726C97
P 800 850
F 0 "#PWR02" H 800 700 50  0001 C CNN
F 1 "+3V3" H 815 1023 50  0000 C CNN
F 2 "" H 800 850 50  0001 C CNN
F 3 "" H 800 850 50  0001 C CNN
	1    800  850 
	1    0    0    -1  
$EndComp
Wire Wire Line
	800  850  800  1250
NoConn ~ 1500 1800
NoConn ~ 1500 1900
NoConn ~ 1500 2800
NoConn ~ 1500 2900
NoConn ~ 1500 3000
NoConn ~ 1500 3100
NoConn ~ 1500 3200
NoConn ~ 1500 3300
Wire Wire Line
	3050 1700 2700 1700
Wire Wire Line
	2700 1900 3050 1900
Text Label 3050 2400 2    39   ~ 0
ESP32_TMS
Text Label 3050 2200 2    39   ~ 0
ESP32_TDI
Text Label 3050 2300 2    39   ~ 0
ESP32_TCK
Text Label 3050 2500 2    39   ~ 0
ESP32_TDO
Wire Wire Line
	3050 2500 2700 2500
Wire Wire Line
	2700 2400 3050 2400
Wire Wire Line
	3050 2300 2700 2300
Wire Wire Line
	2700 2200 3050 2200
$Comp
L MCU_ST_STM32F1:STM32F103C4Tx U4
U 1 1 607B575D
P 9350 3200
F 0 "U4" H 8800 1750 50  0000 C CNN
F 1 "STM32F103C4Tx" H 9800 1750 50  0000 C CNN
F 2 "Package_QFP:LQFP-48_7x7mm_P0.5mm" H 8750 1800 50  0001 R CNN
F 3 "http://www.st.com/st-web-ui/static/active/en/resource/technical/document/datasheet/CD00210843.pdf" H 9350 3200 50  0001 C CNN
F 4 "STM32F103C4T6A" H 11300 -4350 50  0001 C CNN "PN"
	1    9350 3200
	1    0    0    -1  
$EndComp
Wire Wire Line
	10000 1900 10000 1950
Wire Wire Line
	9350 1650 9450 1650
Wire Wire Line
	9450 1650 9450 1700
Connection ~ 9350 1650
Wire Wire Line
	9450 4750 9450 4700
Text Label 10900 4200 2    39   ~ 0
USB_D+
Text Label 10250 4100 2    39   ~ 0
USB_D-
Wire Wire Line
	10250 4100 9950 4100
Text Label 1450 6850 2    39   ~ 0
USB_D+
Text Label 1450 6950 2    39   ~ 0
USB_D-
Wire Wire Line
	1450 6950 1150 6950
Wire Wire Line
	1150 6850 1450 6850
NoConn ~ 1150 7050
Text Label 10300 3500 2    39   ~ 0
ESP32_EN
Wire Wire Line
	10300 3000 9950 3000
$Comp
L Device:LED D2
U 1 1 608649FF
P 4000 6350
F 0 "D2" H 4000 6150 50  0000 C CNN
F 1 "LED" H 4000 6250 50  0000 C CNN
F 2 "Diode_SMD:D_0805_2012Metric_Pad1.15x1.40mm_HandSolder" H 4000 6350 50  0001 C CNN
F 3 "~" H 4000 6350 50  0001 C CNN
F 4 "150080VS75000" H 700 3800 50  0001 C CNN "PN"
	1    4000 6350
	-1   0    0    1   
$EndComp
$Comp
L Device:R R9
U 1 1 60864A07
P 4350 6350
F 0 "R9" H 4420 6396 50  0000 L CNN
F 1 "110" H 4420 6305 50  0000 L CNN
F 2 "Resistor_SMD:R_0603_1608Metric_Pad1.05x0.95mm_HandSolder" V 4280 6350 50  0001 C CNN
F 3 "~" H 4350 6350 50  0001 C CNN
F 4 "AC0603JR-07110RL" H 700 3800 50  0001 C CNN "PN"
	1    4350 6350
	0    1    1    0   
$EndComp
Wire Wire Line
	4200 6350 4150 6350
Wire Notes Line
	550  550  550  4500
Wire Notes Line
	550  4500 3200 4500
Wire Notes Line
	3200 4500 3200 550 
Wire Notes Line
	3200 550  550  550 
$Comp
L power:+BATT #PWR047
U 1 1 609421A6
P 3700 6300
F 0 "#PWR047" H 3700 6150 50  0001 C CNN
F 1 "+BATT" H 3715 6473 50  0000 C CNN
F 2 "" H 3700 6300 50  0001 C CNN
F 3 "" H 3700 6300 50  0001 C CNN
	1    3700 6300
	1    0    0    -1  
$EndComp
Wire Wire Line
	3700 6300 3700 6350
Text Label 4650 6350 2    39   ~ 0
~CHG
Wire Wire Line
	4500 6350 4650 6350
Text Label 3050 1600 2    39   ~ 0
ESP_BOOT
Wire Wire Line
	3050 1600 2700 1600
Text Label 8100 3800 0    39   ~ 0
ESP_BOOT
Wire Wire Line
	10300 3100 9950 3100
Text Label 10250 4400 2    39   ~ 0
SWCLK
Text Label 10250 4300 2    39   ~ 0
SWDIO
Wire Wire Line
	10250 4300 9950 4300
Wire Wire Line
	10250 4400 9950 4400
$Comp
L little_temp-rescue:SI7006-A20-IM-sensors U3
U 1 1 60ABB5AD
P 4500 4250
F 0 "U3" H 4500 4601 39  0000 C CNN
F 1 "SI7006-A20-IM" H 4500 4526 39  0000 C CNN
F 2 "Package_DFN_QFN:DFN-6-1EP_3x3mm_P1mm_EP1.5x2.4mm" H 4500 4250 39  0001 C CNN
F 3 "" H 4500 4250 39  0001 C CNN
F 4 "SI7006-A20-IM" H -2900 3100 50  0001 C CNN "PN"
	1    4500 4250
	1    0    0    -1  
$EndComp
$Comp
L little_temp-rescue:MS560702BA03-50-sensors U7
U 1 1 60ABB5AE
P 4600 5350
F 0 "U7" H 4600 5701 39  0000 C CNN
F 1 "MS560702BA03-50" H 4600 5626 39  0000 C CNN
F 2 "little_temp:DFN-8-3x5mm_P1.25mm" H 4600 5450 39  0001 C CNN
F 3 "" H 4600 5450 39  0001 C CNN
F 4 "MS560702BA03-50" H -2900 3250 50  0001 C CNN "PN"
	1    4600 5350
	1    0    0    -1  
$EndComp
$Comp
L Device:C C7
U 1 1 5DC7A716
P 3800 5400
F 0 "C7" H 3550 5450 50  0000 L CNN
F 1 "0.1uF" H 3450 5350 50  0000 L CNN
F 2 "Capacitor_SMD:C_0603_1608Metric_Pad1.05x0.95mm_HandSolder" H 3838 5250 50  0001 C CNN
F 3 "~" H 3800 5400 50  0001 C CNN
F 4 "C0603C104M5RACTU" H -2900 3250 50  0001 C CNN "PN"
	1    3800 5400
	1    0    0    -1  
$EndComp
$Comp
L power:+3V3 #PWR014
U 1 1 5DC7A829
P 3800 5150
F 0 "#PWR014" H 3800 5000 50  0001 C CNN
F 1 "+3V3" H 3815 5323 50  0000 C CNN
F 2 "" H 3800 5150 50  0001 C CNN
F 3 "" H 3800 5150 50  0001 C CNN
	1    3800 5150
	1    0    0    -1  
$EndComp
Wire Wire Line
	3800 5150 3800 5200
Wire Wire Line
	3800 5200 4050 5200
Wire Wire Line
	3800 5250 3800 5200
Connection ~ 3800 5200
Wire Wire Line
	4150 5300 4050 5300
Wire Wire Line
	4050 5300 4050 5200
Connection ~ 4050 5200
Wire Wire Line
	4050 5200 4150 5200
$Comp
L power:GND #PWR015
U 1 1 5DC931FA
P 3800 5600
F 0 "#PWR015" H 3800 5350 50  0001 C CNN
F 1 "GND" H 3805 5427 50  0000 C CNN
F 2 "" H 3800 5600 50  0001 C CNN
F 3 "" H 3800 5600 50  0001 C CNN
	1    3800 5600
	1    0    0    -1  
$EndComp
$Comp
L power:GND #PWR018
U 1 1 5DC93257
P 4000 5600
F 0 "#PWR018" H 4000 5350 50  0001 C CNN
F 1 "GND" H 4005 5427 50  0000 C CNN
F 2 "" H 4000 5600 50  0001 C CNN
F 3 "" H 4000 5600 50  0001 C CNN
	1    4000 5600
	1    0    0    -1  
$EndComp
Wire Wire Line
	4000 5600 4000 5500
Wire Wire Line
	4000 5400 4150 5400
Wire Wire Line
	3800 5600 3800 5550
Wire Wire Line
	4150 5500 4000 5500
Connection ~ 4000 5500
Wire Wire Line
	4000 5500 4000 5400
$Comp
L power:GND #PWR030
U 1 1 60ABB5B6
P 5100 5600
F 0 "#PWR030" H 5100 5350 50  0001 C CNN
F 1 "GND" H 5105 5427 50  0000 C CNN
F 2 "" H 5100 5600 50  0001 C CNN
F 3 "" H 5100 5600 50  0001 C CNN
	1    5100 5600
	1    0    0    -1  
$EndComp
Wire Wire Line
	5100 5600 5100 5500
Wire Wire Line
	5100 5500 5050 5500
Text Label 5450 5300 2    39   ~ 0
SENSOR_SDA
Text Label 5450 5200 2    39   ~ 0
SENSOR_SCL
Wire Wire Line
	5450 5200 5050 5200
Wire Wire Line
	5050 5300 5450 5300
NoConn ~ 5050 5400
Text Label 5200 4100 2    39   ~ 0
SENSOR_SCL
Text Label 3800 4100 0    39   ~ 0
SENSOR_SDA
Wire Wire Line
	3800 4100 4200 4100
Wire Wire Line
	5200 4100 4800 4100
$Comp
L Device:C C10
U 1 1 5DCE74F6
P 4950 4450
F 0 "C10" H 5065 4496 50  0000 L CNN
F 1 "0.1uF" H 5065 4405 50  0000 L CNN
F 2 "Capacitor_SMD:C_0603_1608Metric_Pad1.05x0.95mm_HandSolder" H 4988 4300 50  0001 C CNN
F 3 "~" H 4950 4450 50  0001 C CNN
F 4 "C0603C104M5RACTU" H -2900 3100 50  0001 C CNN "PN"
	1    4950 4450
	1    0    0    -1  
$EndComp
$Comp
L power:GND #PWR029
U 1 1 60ABB5B8
P 4950 4650
F 0 "#PWR029" H 4950 4400 50  0001 C CNN
F 1 "GND" H 4955 4477 50  0000 C CNN
F 2 "" H 4950 4650 50  0001 C CNN
F 3 "" H 4950 4650 50  0001 C CNN
	1    4950 4650
	1    0    0    -1  
$EndComp
$Comp
L power:+3V3 #PWR032
U 1 1 60ABB5B9
P 5300 4150
F 0 "#PWR032" H 5300 4000 50  0001 C CNN
F 1 "+3V3" H 5315 4323 50  0000 C CNN
F 2 "" H 5300 4150 50  0001 C CNN
F 3 "" H 5300 4150 50  0001 C CNN
	1    5300 4150
	1    0    0    -1  
$EndComp
Wire Wire Line
	5300 4150 5300 4250
Wire Wire Line
	5300 4250 4950 4250
Wire Wire Line
	4950 4300 4950 4250
Connection ~ 4950 4250
Wire Wire Line
	4950 4250 4800 4250
Wire Wire Line
	4950 4600 4950 4650
$Comp
L power:GND #PWR020
U 1 1 5DD198C5
P 4100 4650
F 0 "#PWR020" H 4100 4400 50  0001 C CNN
F 1 "GND" H 4105 4477 50  0000 C CNN
F 2 "" H 4100 4650 50  0001 C CNN
F 3 "" H 4100 4650 50  0001 C CNN
	1    4100 4650
	1    0    0    -1  
$EndComp
Wire Wire Line
	4100 4650 4100 4250
Wire Wire Line
	4100 4250 4200 4250
NoConn ~ 4200 4400
NoConn ~ 4800 4400
Wire Notes Line
	3300 2700 5950 2700
Wire Notes Line
	5950 2700 5950 5850
Wire Notes Line
	5950 5850 3300 5850
Wire Notes Line
	3300 5850 3300 2700
Text Notes 3300 2700 0    39   ~ 0
SENSORS
Text Label 8100 3700 0    39   ~ 0
SENSOR_SDA
Text Label 8100 3600 0    39   ~ 0
SENSOR_SCL
Text Label 10450 2800 1    39   ~ 0
SENSOR_SCL
Text Label 10700 2800 1    39   ~ 0
SENSOR_SDA
$Comp
L Device:R R6
U 1 1 5DCC3C40
P 10450 2200
F 0 "R6" H 10550 2250 50  0000 L CNN
F 1 "4K7" H 10520 2155 50  0000 L CNN
F 2 "Resistor_SMD:R_0603_1608Metric_Pad1.05x0.95mm_HandSolder" V 10380 2200 50  0001 C CNN
F 3 "~" H 10450 2200 50  0001 C CNN
F 4 "ERJ-3GEYJ472V" H 7800 -3600 50  0001 C CNN "PN"
	1    10450 2200
	-1   0    0    1   
$EndComp
$Comp
L Device:R R7
U 1 1 5DCC3F9E
P 10700 2200
F 0 "R7" H 10500 2250 50  0000 L CNN
F 1 "4K7" H 10500 2150 50  0000 L CNN
F 2 "Resistor_SMD:R_0603_1608Metric_Pad1.05x0.95mm_HandSolder" V 10630 2200 50  0001 C CNN
F 3 "~" H 10700 2200 50  0001 C CNN
F 4 "ERJ-3GEYJ472V" H 7800 -3600 50  0001 C CNN "PN"
	1    10700 2200
	-1   0    0    1   
$EndComp
$Comp
L power:+3V3 #PWR046
U 1 1 5DCC4352
P 10450 2000
F 0 "#PWR046" H 10450 1850 50  0001 C CNN
F 1 "+3V3" H 10465 2173 50  0000 C CNN
F 2 "" H 10450 2000 50  0001 C CNN
F 3 "" H 10450 2000 50  0001 C CNN
	1    10450 2000
	1    0    0    -1  
$EndComp
$Comp
L power:+3V3 #PWR048
U 1 1 5DCC4518
P 10700 2000
F 0 "#PWR048" H 10700 1850 50  0001 C CNN
F 1 "+3V3" H 10715 2173 50  0000 C CNN
F 2 "" H 10700 2000 50  0001 C CNN
F 3 "" H 10700 2000 50  0001 C CNN
	1    10700 2000
	1    0    0    -1  
$EndComp
Wire Wire Line
	10450 2800 10450 2350
Wire Wire Line
	10450 2050 10450 2000
Wire Wire Line
	10700 2000 10700 2050
Wire Wire Line
	10700 2350 10700 2800
Wire Wire Line
	6150 3300 6600 3300
Wire Wire Line
	7100 3300 7600 3300
Text Label 7600 3300 2    39   ~ 0
MCU_LCLK_OUT
Text Label 6150 3300 0    39   ~ 0
MCU_LCLK_IN
Wire Wire Line
	7100 3950 7100 4050
$Comp
L power:GND #PWR042
U 1 1 5DDAC857
P 7100 4050
F 0 "#PWR042" H 7100 3800 50  0001 C CNN
F 1 "GND" H 7105 3877 50  0000 C CNN
F 2 "" H 7100 4050 50  0001 C CNN
F 3 "" H 7100 4050 50  0001 C CNN
	1    7100 4050
	1    0    0    -1  
$EndComp
$Comp
L Device:C C19
U 1 1 5DDAC856
P 7100 3800
F 0 "C19" H 6900 3700 50  0000 L CNN
F 1 "10pF" V 7300 3450 50  0000 L CNN
F 2 "Capacitor_SMD:C_0603_1608Metric_Pad1.05x0.95mm_HandSolder" H 7138 3650 50  0001 C CNN
F 3 "~" H 7100 3800 50  0001 C CNN
F 4 "" H -1350 2150 50  0001 C CNN "Project"
F 5 "C0603C100M5HACTU" H 5250 -1700 50  0001 C CNN "PN"
	1    7100 3800
	1    0    0    -1  
$EndComp
Wire Wire Line
	6600 3950 6600 4050
$Comp
L power:GND #PWR039
U 1 1 5DD82DAE
P 6600 4050
F 0 "#PWR039" H 6600 3800 50  0001 C CNN
F 1 "GND" H 6605 3877 50  0000 C CNN
F 2 "" H 6600 4050 50  0001 C CNN
F 3 "" H 6600 4050 50  0001 C CNN
	1    6600 4050
	1    0    0    -1  
$EndComp
Wire Wire Line
	6600 3650 6600 3600
$Comp
L Device:C C16
U 1 1 5DD82DAD
P 6600 3800
F 0 "C16" H 6650 3700 50  0000 L CNN
F 1 "10pF" V 6450 3450 50  0000 L CNN
F 2 "Capacitor_SMD:C_0603_1608Metric_Pad1.05x0.95mm_HandSolder" H 6638 3650 50  0001 C CNN
F 3 "~" H 6600 3800 50  0001 C CNN
F 4 "C0603C100M5HACTU" H 5250 -1700 50  0001 C CNN "PN"
	1    6600 3800
	1    0    0    -1  
$EndComp
Wire Wire Line
	7100 3650 7100 3600
Wire Wire Line
	7100 3600 7100 3300
Connection ~ 7100 3600
Wire Wire Line
	7000 3600 7100 3600
Wire Wire Line
	6600 3600 6700 3600
Connection ~ 6600 3600
Wire Wire Line
	6600 3300 6600 3600
$Comp
L Device:Crystal Y2
U 1 1 5DD82DAC
P 6850 3600
F 0 "Y2" V 7041 3646 50  0000 L CNN
F 1 "32.768kHz" H 6650 3800 50  0000 L CNN
F 2 "Crystal:Crystal_SMD_EuroQuartz_EQ161-2Pin_3.2x1.5mm_HandSoldering" H 6850 3600 50  0001 C CNN
F 3 "" H 6850 3600 50  0001 C CNN
F 4 "" H -1350 2150 50  0001 C CNN "Project"
F 5 "ST3215SB32768E0HPWBB" H 5250 -1700 50  0001 C CNN "PN"
	1    6850 3600
	1    0    0    -1  
$EndComp
Text Label 8100 2800 0    39   ~ 0
MCU_LCLK_OUT
Text Label 8100 2700 0    39   ~ 0
MCU_LCLK_IN
Wire Wire Line
	8650 2700 8100 2700
Wire Wire Line
	8100 2800 8650 2800
$Comp
L Device:C C23
U 1 1 60C051FB
P 6200 1100
F 0 "C23" H 6315 1146 50  0000 L CNN
F 1 "0.1uF" H 6315 1055 50  0000 L CNN
F 2 "Capacitor_SMD:C_0603_1608Metric_Pad1.05x0.95mm_HandSolder" H 6238 950 50  0001 C CNN
F 3 "~" H 6200 1100 50  0001 C CNN
F 4 "C0603C104M5RACTU" H 5200 -1700 50  0001 C CNN "PN"
	1    6200 1100
	1    0    0    -1  
$EndComp
Text Notes 6250 1000 0    39   ~ 0
PIN 1
Wire Wire Line
	6200 850  6200 900 
Wire Wire Line
	6200 900  6650 900 
Connection ~ 6200 900 
Wire Wire Line
	6200 900  6200 950 
Connection ~ 6650 900 
Wire Wire Line
	6650 1300 6200 1300
Connection ~ 6650 1300
Wire Wire Line
	6200 1300 6200 1250
Connection ~ 6200 1300
NoConn ~ 9950 3800
NoConn ~ 8650 2600
NoConn ~ 2700 2600
NoConn ~ 2700 2000
NoConn ~ 2700 2700
NoConn ~ 2700 2800
NoConn ~ 2700 2900
NoConn ~ 2700 3000
NoConn ~ 2700 3100
NoConn ~ 2700 3200
NoConn ~ 2700 3300
NoConn ~ 2700 3400
$Comp
L Connector_Generic:Conn_01x04 J4
U 1 1 606A573B
P 1300 3850
F 0 "J4" H 1250 4050 50  0000 L CNN
F 1 "ESP_EXP" H 950 3500 50  0000 L CNN
F 2 "Connector_PinHeader_2.54mm:PinHeader_1x04_P2.54mm_Vertical" H 1300 3850 50  0001 C CNN
F 3 "~" H 1300 3850 50  0001 C CNN
	1    1300 3850
	1    0    0    -1  
$EndComp
Wire Wire Line
	2700 3700 2750 3700
Wire Wire Line
	2700 3600 2750 3600
Wire Wire Line
	2700 3800 2750 3800
Wire Wire Line
	2700 3900 2750 3900
Entry Wire Line
	2750 3600 2850 3700
Entry Wire Line
	2750 3700 2850 3800
Entry Wire Line
	2750 3800 2850 3900
Entry Wire Line
	2750 3900 2850 4000
Text Label 2750 3600 0    39   ~ 0
B3
Text Label 2750 3700 0    39   ~ 0
B4
Text Label 2750 3800 0    39   ~ 0
B1
Text Label 2750 3900 0    39   ~ 0
B2
Entry Wire Line
	900  3850 1000 3750
Entry Wire Line
	900  3950 1000 3850
Entry Wire Line
	900  4050 1000 3950
Entry Wire Line
	900  4150 1000 4050
Wire Wire Line
	1000 3750 1100 3750
Wire Wire Line
	1100 3850 1000 3850
Wire Wire Line
	1000 3950 1100 3950
Wire Wire Line
	1100 4050 1000 4050
Text Label 1000 3750 0    39   ~ 0
B1
Text Label 1000 3850 0    39   ~ 0
B2
Text Label 1000 3950 0    39   ~ 0
B3
Text Label 1000 4050 0    39   ~ 0
B4
$Comp
L Connector_Generic:Conn_01x04 J6
U 1 1 60883589
P 9300 5300
F 0 "J6" H 9250 5500 50  0000 L CNN
F 1 "VCC" H 9250 5000 50  0000 L CNN
F 2 "Connector_PinHeader_2.54mm:PinHeader_1x04_P2.54mm_Vertical" H 9300 5300 50  0001 C CNN
F 3 "~" H 9300 5300 50  0001 C CNN
	1    9300 5300
	-1   0    0    -1  
$EndComp
$Comp
L Connector_Generic:Conn_01x04 J7
U 1 1 60883643
P 9900 5300
F 0 "J7" H 9850 5500 50  0000 L CNN
F 1 "GND" H 9850 5000 50  0000 L CNN
F 2 "Connector_PinHeader_2.54mm:PinHeader_1x04_P2.54mm_Vertical" H 9900 5300 50  0001 C CNN
F 3 "~" H 9900 5300 50  0001 C CNN
	1    9900 5300
	-1   0    0    -1  
$EndComp
$Comp
L power:+3V3 #PWR056
U 1 1 608837D1
P 9550 5150
F 0 "#PWR056" H 9550 5000 50  0001 C CNN
F 1 "+3V3" H 9565 5323 50  0000 C CNN
F 2 "" H 9550 5150 50  0001 C CNN
F 3 "" H 9550 5150 50  0001 C CNN
	1    9550 5150
	1    0    0    -1  
$EndComp
$Comp
L power:GND #PWR057
U 1 1 60884EEA
P 10150 5600
F 0 "#PWR057" H 10150 5350 50  0001 C CNN
F 1 "GND" H 10155 5427 50  0000 C CNN
F 2 "" H 10150 5600 50  0001 C CNN
F 3 "" H 10150 5600 50  0001 C CNN
	1    10150 5600
	1    0    0    -1  
$EndComp
Wire Wire Line
	9550 5150 9550 5200
Wire Wire Line
	9550 5500 9500 5500
Wire Wire Line
	9500 5200 9550 5200
Connection ~ 9550 5200
Wire Wire Line
	9550 5200 9550 5300
Wire Wire Line
	9500 5300 9550 5300
Connection ~ 9550 5300
Wire Wire Line
	9550 5300 9550 5400
Wire Wire Line
	9500 5400 9550 5400
Connection ~ 9550 5400
Wire Wire Line
	9550 5400 9550 5500
Wire Wire Line
	10150 5600 10150 5500
Wire Wire Line
	10150 5200 10100 5200
Wire Wire Line
	10100 5300 10150 5300
Connection ~ 10150 5300
Wire Wire Line
	10150 5300 10150 5200
Wire Wire Line
	10100 5400 10150 5400
Connection ~ 10150 5400
Wire Wire Line
	10150 5400 10150 5300
Wire Wire Line
	10100 5500 10150 5500
Connection ~ 10150 5500
Wire Wire Line
	10150 5500 10150 5400
Text Label 8100 4200 0    39   ~ 0
LED_1
Wire Wire Line
	9950 3300 10300 3300
Text Label 10300 3400 2    39   ~ 0
ESP32_TMS
Text Label 10300 3100 2    39   ~ 0
ESP32_TDI
Text Label 10300 3000 2    39   ~ 0
ESP32_TCK
Text Label 8100 3500 0    39   ~ 0
ESP32_TDO
Wire Wire Line
	8100 3400 8650 3400
Wire Wire Line
	8100 3500 8650 3500
Wire Wire Line
	8100 3600 8650 3600
Wire Wire Line
	8100 3700 8650 3700
NoConn ~ 2700 3500
Text Label 3050 1800 2    39   ~ 0
ESP_GPIO2
Text Label 3050 2100 2    39   ~ 0
ESP_GPIO5
Wire Wire Line
	3050 2100 2700 2100
Wire Wire Line
	2700 1800 3050 1800
Text Label 8100 3400 0    39   ~ 0
ESP_GPIO2
Text Label 8100 3900 0    39   ~ 0
ESP_GPIO5
Wire Wire Line
	9950 3400 10300 3400
Wire Wire Line
	10300 3500 9950 3500
$Comp
L Device:C C11
U 1 1 60693F56
P 5500 2100
F 0 "C11" H 5615 2146 50  0000 L CNN
F 1 "33uF" H 5615 2055 50  0000 L CNN
F 2 "Capacitor_SMD:C_0805_2012Metric_Pad1.15x1.40mm_HandSolder" H 5538 1950 50  0001 C CNN
F 3 "~" H 5500 2100 50  0001 C CNN
F 4 "C2012X5R1A336M125AC" H 3950 550 50  0001 C CNN "PN"
	1    5500 2100
	1    0    0    -1  
$EndComp
$Comp
L Device:C C6
U 1 1 60696E95
P 3850 2100
F 0 "C6" H 3965 2146 50  0000 L CNN
F 1 "10uF" H 3965 2055 50  0000 L CNN
F 2 "Capacitor_SMD:C_0805_2012Metric_Pad1.15x1.40mm_HandSolder" H 3888 1950 50  0001 C CNN
F 3 "~" H 3850 2100 50  0001 C CNN
F 4 "CL21A106KOQNNNE" H 3850 2100 50  0001 C CNN "PN"
	1    3850 2100
	1    0    0    -1  
$EndComp
$Comp
L little_temp:TPS63001 U8
U 1 1 606CEB5A
P 4600 1500
F 0 "U8" H 4600 1825 50  0000 C CNN
F 1 "TPS63001" H 4600 1734 50  0000 C CNN
F 2 "little_temp:VSON_10_EP_3x3mm" H 4600 1500 50  0001 C CNN
F 3 "https://www.ti.com/lit/ds/symlink/tps63001.pdf?HQS=dis-dk-null-digikeymode-dsf-pf-null-wwe&ts=1617509085279" H 4600 1500 50  0001 C CNN
F 4 "TPS63001DRCT" H 4600 1500 50  0001 C CNN "PN"
	1    4600 1500
	1    0    0    -1  
$EndComp
$Comp
L Device:L L1
U 1 1 606CEF65
P 4600 1100
F 0 "L1" V 4790 1100 50  0000 C CNN
F 1 "1.5uH" V 4699 1100 50  0000 C CNN
F 2 "little_temp:L_1008_2520Metric" H 4600 1100 50  0001 C CNN
F 3 "https://search.murata.co.jp/Ceramy/image/img/P02/JELF243B-0019.pdf" H 4600 1100 50  0001 C CNN
F 4 "LQM2HPN1R5MG0L" H 4600 1100 50  0001 C CNN "PN"
	1    4600 1100
	0    -1   -1   0   
$EndComp
$Comp
L Device:R R14
U 1 1 606D0C96
P 3550 7150
F 0 "R14" H 3620 7196 50  0000 L CNN
F 1 "10m" H 3620 7105 50  0000 L CNN
F 2 "Resistor_SMD:R_0603_1608Metric" V 3480 7150 50  0001 C CNN
F 3 "~" H 3550 7150 50  0001 C CNN
F 4 "RL0816T-R010-F" H 3550 7150 50  0001 C CNN "PN"
	1    3550 7150
	1    0    0    -1  
$EndComp
Wire Wire Line
	3550 7000 3550 6950
Wire Wire Line
	3550 7300 3550 7350
Text Label 4050 7050 2    39   ~ 0
BATT_CUR
Wire Wire Line
	4050 7050 3750 7050
Wire Wire Line
	3750 7050 3750 6950
Wire Wire Line
	3750 6950 3550 6950
Connection ~ 3550 6950
Wire Wire Line
	3550 6950 3550 6900
$Comp
L Device:R R13
U 1 1 607137CB
P 2150 5600
F 0 "R13" H 2220 5646 50  0000 L CNN
F 1 "10k" H 2220 5555 50  0000 L CNN
F 2 "Resistor_SMD:R_0603_1608Metric_Pad1.05x0.95mm_HandSolder" V 2080 5600 50  0001 C CNN
F 3 "~" H 2150 5600 50  0001 C CNN
F 4 "ERA-3VRW1002V" H -500 1650 50  0001 C CNN "PN"
	1    2150 5600
	0    1    1    0   
$EndComp
$Comp
L Amplifier_Operational:MCP6001-OT U5
U 1 1 60713DB0
P 2150 5150
F 0 "U5" H 2491 5196 50  0000 L CNN
F 1 "MCP6001-OT" H 2491 5105 50  0000 L CNN
F 2 "Package_TO_SOT_SMD:SOT-23-5" H 2050 4950 50  0001 L CNN
F 3 "http://ww1.microchip.com/downloads/en/DeviceDoc/21733j.pdf" H 2150 5350 50  0001 C CNN
F 4 "MCP6001RT-I/OT" H 2150 5150 50  0001 C CNN "PN"
	1    2150 5150
	1    0    0    -1  
$EndComp
Wire Wire Line
	4150 1400 4100 1400
Wire Wire Line
	4100 1400 4100 1100
Wire Wire Line
	4100 1100 4450 1100
Wire Wire Line
	4750 1100 5100 1100
Wire Wire Line
	5100 1100 5100 1400
Wire Wire Line
	5100 1400 5050 1400
$Comp
L power:GND #PWR034
U 1 1 607594C1
P 5100 2300
F 0 "#PWR034" H 5100 2050 50  0001 C CNN
F 1 "GND" H 5105 2127 50  0000 C CNN
F 2 "" H 5100 2300 50  0001 C CNN
F 3 "" H 5100 2300 50  0001 C CNN
	1    5100 2300
	1    0    0    -1  
$EndComp
Wire Wire Line
	5050 1800 5100 1800
Wire Wire Line
	5100 1800 5100 1900
Wire Wire Line
	5050 1900 5100 1900
Connection ~ 5100 1900
Wire Wire Line
	5100 1900 5100 2000
Wire Wire Line
	5050 2000 5100 2000
Connection ~ 5100 2000
$Comp
L power:GND #PWR058
U 1 1 6079FCA4
P 5500 2300
F 0 "#PWR058" H 5500 2050 50  0001 C CNN
F 1 "GND" H 5505 2127 50  0000 C CNN
F 2 "" H 5500 2300 50  0001 C CNN
F 3 "" H 5500 2300 50  0001 C CNN
	1    5500 2300
	1    0    0    -1  
$EndComp
$Comp
L power:GND #PWR031
U 1 1 6079FD33
P 3850 2300
F 0 "#PWR031" H 3850 2050 50  0001 C CNN
F 1 "GND" H 3855 2127 50  0000 C CNN
F 2 "" H 3850 2300 50  0001 C CNN
F 3 "" H 3850 2300 50  0001 C CNN
	1    3850 2300
	1    0    0    -1  
$EndComp
Wire Wire Line
	3850 2300 3850 2250
Wire Wire Line
	3850 1950 3850 1900
Wire Wire Line
	3850 1550 4150 1550
Wire Wire Line
	4150 1650 3850 1650
Connection ~ 3850 1650
Wire Wire Line
	3850 1650 3850 1550
Wire Wire Line
	4150 1750 3850 1750
Connection ~ 3850 1750
Wire Wire Line
	3850 1750 3850 1650
Wire Wire Line
	4150 1900 3850 1900
Connection ~ 3850 1900
Wire Wire Line
	3850 1900 3850 1750
Wire Wire Line
	5100 2000 5100 2300
Wire Wire Line
	5050 1550 5200 1550
Wire Wire Line
	5500 1550 5500 1650
Wire Wire Line
	5050 1650 5500 1650
Connection ~ 5500 1650
Wire Wire Line
	5500 1650 5500 1950
Wire Wire Line
	5500 2250 5500 2300
Connection ~ 5200 1550
Wire Wire Line
	5200 1550 5500 1550
Wire Wire Line
	5500 1500 5500 1550
Connection ~ 5500 1550
Connection ~ 3850 1550
$Comp
L power:PWR_FLAG #FLG01
U 1 1 608F6E40
P 5750 1600
F 0 "#FLG01" H 5750 1675 50  0001 C CNN
F 1 "PWR_FLAG" H 5750 1774 50  0000 C CNN
F 2 "" H 5750 1600 50  0001 C CNN
F 3 "~" H 5750 1600 50  0001 C CNN
	1    5750 1600
	1    0    0    -1  
$EndComp
Wire Wire Line
	5750 1600 5750 1650
Wire Wire Line
	5750 1650 5500 1650
Wire Notes Line
	5950 2600 5950 550 
Wire Notes Line
	5950 550  3300 550 
Wire Notes Line
	3300 550  3300 2600
Wire Notes Line
	3300 2600 5950 2600
$Comp
L Device:R R11
U 1 1 609AC206
P 1400 5050
F 0 "R11" H 1470 5096 50  0000 L CNN
F 1 "10k" H 1470 5005 50  0000 L CNN
F 2 "Resistor_SMD:R_0603_1608Metric_Pad1.05x0.95mm_HandSolder" V 1330 5050 50  0001 C CNN
F 3 "~" H 1400 5050 50  0001 C CNN
F 4 "ERA-3VRW1002V" H -1250 1100 50  0001 C CNN "PN"
	1    1400 5050
	-1   0    0    1   
$EndComp
$Comp
L power:GND #PWR028
U 1 1 609AC9F9
P 2150 5450
F 0 "#PWR028" H 2150 5200 50  0001 C CNN
F 1 "GND" H 2155 5277 50  0000 C CNN
F 2 "" H 2150 5450 50  0001 C CNN
F 3 "" H 2150 5450 50  0001 C CNN
	1    2150 5450
	0    -1   -1   0   
$EndComp
$Comp
L power:+3V3 #PWR023
U 1 1 609ADDF3
P 2050 4800
F 0 "#PWR023" H 2050 4650 50  0001 C CNN
F 1 "+3V3" H 2065 4973 50  0000 C CNN
F 2 "" H 2050 4800 50  0001 C CNN
F 3 "" H 2050 4800 50  0001 C CNN
	1    2050 4800
	1    0    0    -1  
$EndComp
Text Label 1550 5050 0    39   ~ 0
BATT_CUR
Wire Wire Line
	1550 5050 1850 5050
Wire Wire Line
	2050 4800 2050 4850
$Comp
L Device:R R12
U 1 1 609F8312
P 1600 5250
F 0 "R12" H 1670 5296 50  0000 L CNN
F 1 "110" H 1670 5205 50  0000 L CNN
F 2 "Resistor_SMD:R_0603_1608Metric_Pad1.05x0.95mm_HandSolder" V 1530 5250 50  0001 C CNN
F 3 "~" H 1600 5250 50  0001 C CNN
F 4 "AC0603JR-07110RL" H -2050 2700 50  0001 C CNN "PN"
	1    1600 5250
	0    1    1    0   
$EndComp
$Comp
L Device:R R10
U 1 1 609F8F2A
P 1200 5350
F 0 "R10" H 1270 5396 50  0000 L CNN
F 1 "10k" H 1270 5305 50  0000 L CNN
F 2 "Resistor_SMD:R_0603_1608Metric_Pad1.05x0.95mm_HandSolder" V 1130 5350 50  0001 C CNN
F 3 "~" H 1200 5350 50  0001 C CNN
F 4 "ERA-3VRW1002V" H -1450 1400 50  0001 C CNN "PN"
	1    1200 5350
	0    1    1    0   
$EndComp
$Comp
L power:GND #PWR013
U 1 1 609F8FD1
P 950 5400
F 0 "#PWR013" H 950 5150 50  0001 C CNN
F 1 "GND" H 955 5227 50  0000 C CNN
F 2 "" H 950 5400 50  0001 C CNN
F 3 "" H 950 5400 50  0001 C CNN
	1    950  5400
	1    0    0    -1  
$EndComp
$Comp
L power:+3V3 #PWR019
U 1 1 60A11EC5
P 1400 4850
F 0 "#PWR019" H 1400 4700 50  0001 C CNN
F 1 "+3V3" H 1415 5023 50  0000 C CNN
F 2 "" H 1400 4850 50  0001 C CNN
F 3 "" H 1400 4850 50  0001 C CNN
	1    1400 4850
	1    0    0    -1  
$EndComp
Wire Wire Line
	1400 4850 1400 4900
Wire Wire Line
	1400 5200 1400 5250
Wire Wire Line
	1400 5250 1450 5250
Connection ~ 1400 5250
$Comp
L Connector:TestPoint TP7
U 1 1 60AA9D37
P 950 5200
F 0 "TP7" H 1008 5320 50  0000 L CNN
F 1 "VREF" H 1008 5229 50  0000 L CNN
F 2 "TestPoint:TestPoint_Pad_D1.0mm" H 1150 5200 50  0001 C CNN
F 3 "~" H 1150 5200 50  0001 C CNN
	1    950  5200
	1    0    0    -1  
$EndComp
Wire Wire Line
	950  5200 950  5250
Wire Wire Line
	950  5250 1400 5250
Text Label 2950 5150 2    39   ~ 0
BATT_OP
$Comp
L Connector:TestPoint TP8
U 1 1 60AFC1B5
P 2650 5050
F 0 "TP8" H 2708 5170 50  0000 L CNN
F 1 "BATT_C" H 2708 5079 50  0000 L CNN
F 2 "TestPoint:TestPoint_Pad_D1.0mm" H 2850 5050 50  0001 C CNN
F 3 "~" H 2850 5050 50  0001 C CNN
	1    2650 5050
	1    0    0    -1  
$EndComp
Wire Wire Line
	2650 5050 2650 5150
Connection ~ 2650 5150
Wire Wire Line
	2650 5150 2950 5150
Wire Wire Line
	2050 5450 2150 5450
Wire Wire Line
	1750 5250 1800 5250
Wire Wire Line
	2450 5150 2500 5150
Wire Wire Line
	2500 5150 2500 5600
Wire Wire Line
	2500 5600 2300 5600
Connection ~ 2500 5150
Wire Wire Line
	2500 5150 2650 5150
Wire Wire Line
	2000 5600 1800 5600
Wire Wire Line
	1800 5600 1800 5250
Connection ~ 1800 5250
Wire Wire Line
	1800 5250 1850 5250
Wire Wire Line
	950  5400 950  5350
Wire Wire Line
	950  5350 1050 5350
Wire Wire Line
	1400 5350 1350 5350
Wire Wire Line
	1400 5250 1400 5350
Wire Notes Line
	3200 4600 550  4600
Text Notes 550  4600 0    39   ~ 0
CURRENT OPAMP
Text Label 10300 3600 2    39   ~ 0
BATT_OP
Wire Wire Line
	9950 3200 10300 3200
$Comp
L Device:R R15
U 1 1 6090F4FD
P 10900 3800
F 0 "R15" H 11000 3850 50  0000 L CNN
F 1 "1K5" H 10970 3755 50  0000 L CNN
F 2 "Resistor_SMD:R_0603_1608Metric_Pad1.05x0.95mm_HandSolder" V 10830 3800 50  0001 C CNN
F 3 "~" H 10900 3800 50  0001 C CNN
F 4 "CRGCQ0603F1K5" H 8250 -2000 50  0001 C CNN "PN"
	1    10900 3800
	-1   0    0    1   
$EndComp
Wire Wire Line
	7900 2050 7900 2100
Wire Wire Line
	8650 2100 7900 2100
Connection ~ 7900 2100
Wire Wire Line
	7900 2100 7900 2150
Wire Wire Line
	9150 4750 9250 4750
Connection ~ 9150 4750
Connection ~ 9250 4750
Wire Wire Line
	9250 4750 9350 4750
Connection ~ 9350 4750
Wire Wire Line
	9350 4750 9450 4750
Wire Notes Line
	11150 550  11150 5850
Wire Notes Line
	6050 550  11150 550 
Wire Wire Line
	10250 3900 9950 3900
Wire Wire Line
	9950 4000 10250 4000
NoConn ~ 8650 4000
NoConn ~ 8650 4100
NoConn ~ 8650 3200
NoConn ~ 8650 3300
$Comp
L Connector_Generic:Conn_01x02 J5
U 1 1 60A26465
P 7900 4300
F 0 "J5" H 7900 4400 50  0000 C CNN
F 1 "STM_EXP" V 8000 4250 50  0000 C CNN
F 2 "Connector_PinHeader_2.54mm:PinHeader_1x02_P2.54mm_Vertical" H 7900 4300 50  0001 C CNN
F 3 "~" H 7900 4300 50  0001 C CNN
	1    7900 4300
	-1   0    0    -1  
$EndComp
NoConn ~ 8650 4500
$Comp
L Connector:Screw_Terminal_01x02 J8
U 1 1 60C6BA33
P 4950 6700
F 0 "J8" H 4870 6375 50  0000 C CNN
F 1 "THERMC" H 4870 6466 50  0000 C CNN
F 2 "TerminalBlock_MetzConnect:TerminalBlock_MetzConnect_Type703_RT10N02HGLU_1x02_P9.52mm_Horizontal" H 4950 6700 50  0001 C CNN
F 3 "~" H 4950 6700 50  0001 C CNN
F 4 "OSTYK44102030" H 4950 6700 50  0001 C CNN "PN"
	1    4950 6700
	-1   0    0    1   
$EndComp
Wire Notes Line
	6050 5850 11150 5850
Wire Notes Line
	550  5850 3200 5850
Wire Notes Line
	3200 4600 3200 5850
Wire Notes Line
	550  4600 550  5850
Text Label 1450 6650 0    39   ~ 0
VBUS
Wire Wire Line
	1650 6200 1650 6300
Connection ~ 1650 6650
Wire Wire Line
	1650 6650 1650 6700
Wire Wire Line
	1650 6650 1750 6650
Wire Wire Line
	1150 6650 1250 6650
Wire Wire Line
	1450 6650 1650 6650
Wire Notes Line
	4750 5950 550  5950
Text Notes 2400 7050 0    39   ~ 0
NOTE:\nCONN GNDs\nTHROUGHT THIN\nBRIDGE AFTER ROUTING
Wire Wire Line
	2850 6450 3100 6450
$Comp
L little_temp:LMP7715 U9
U 1 1 60ED4DA9
P 6000 6650
F 0 "U9" H 6050 6500 50  0000 L CNN
F 1 "LMP7715" H 6050 6800 50  0000 L CNN
F 2 "Package_TO_SOT_SMD:SOT-23-5" H 6000 6750 50  0001 C CNN
F 3 "https://www.ti.com/lit/ds/symlink/lmp7715.pdf" H 6000 6850 50  0001 C CNN
F 4 "LMP7715MF/NOPB" H 6000 6650 50  0001 C CNN "PN"
	1    6000 6650
	1    0    0    1   
$EndComp
$Comp
L power:+3V3 #PWR061
U 1 1 60ED5301
P 5900 7000
F 0 "#PWR061" H 5900 6850 50  0001 C CNN
F 1 "+3V3" H 5915 7173 50  0000 C CNN
F 2 "" H 5900 7000 50  0001 C CNN
F 3 "" H 5900 7000 50  0001 C CNN
	1    5900 7000
	-1   0    0    1   
$EndComp
$Comp
L power:GND #PWR060
U 1 1 60ED67D4
P 5900 6300
F 0 "#PWR060" H 5900 6050 50  0001 C CNN
F 1 "GND" H 5905 6127 50  0000 C CNN
F 2 "" H 5900 6300 50  0001 C CNN
F 3 "" H 5900 6300 50  0001 C CNN
	1    5900 6300
	-1   0    0    1   
$EndComp
Text Label 6600 6650 2    39   ~ 0
TC_OUT
$Comp
L Device:C C24
U 1 1 60F46594
P 6700 6350
F 0 "C24" H 6500 6450 50  0000 L CNN
F 1 "0.1uF" H 6450 6250 50  0000 L CNN
F 2 "Capacitor_SMD:C_0603_1608Metric_Pad1.05x0.95mm_HandSolder" H 6738 6200 50  0001 C CNN
F 3 "~" H 6700 6350 50  0001 C CNN
F 4 "C0603C104M5RACTU" H -1950 5000 50  0001 C CNN "PN"
	1    6700 6350
	-1   0    0    1   
$EndComp
$Comp
L Device:R R19
U 1 1 60F7E84D
P 6350 6350
F 0 "R19" H 6420 6396 50  0000 L CNN
F 1 "10k" H 6420 6305 50  0000 L CNN
F 2 "Resistor_SMD:R_0603_1608Metric_Pad1.05x0.95mm_HandSolder" V 6280 6350 50  0001 C CNN
F 3 "~" H 6350 6350 50  0001 C CNN
F 4 "ERA-3VRW1002V" H 3700 2400 50  0001 C CNN "PN"
	1    6350 6350
	1    0    0    -1  
$EndComp
Wire Wire Line
	6350 6500 6350 6550
Connection ~ 6350 6650
Wire Wire Line
	6350 6650 6300 6650
Wire Wire Line
	6700 6500 6700 6550
Wire Wire Line
	6700 6550 6350 6550
Connection ~ 6350 6550
Wire Wire Line
	6350 6550 6350 6650
Wire Wire Line
	5900 6300 5900 6350
Wire Wire Line
	5900 7000 5900 6950
Wire Wire Line
	6350 6650 6600 6650
$Comp
L Device:R R16
U 1 1 610BAC2E
P 5450 6550
F 0 "R16" H 5520 6596 50  0000 L CNN
F 1 "1M5" H 5520 6505 50  0000 L CNN
F 2 "Resistor_SMD:R_0805_2012Metric" V 5380 6550 50  0001 C CNN
F 3 "~" H 5450 6550 50  0001 C CNN
F 4 "CPF0805B1M5E" H 2800 2600 50  0001 C CNN "PN"
	1    5450 6550
	0    -1   -1   0   
$EndComp
Wire Wire Line
	6350 6200 6350 6150
Wire Wire Line
	6350 6050 5650 6050
Wire Wire Line
	5650 6050 5650 6550
Wire Wire Line
	5650 6550 5700 6550
Wire Wire Line
	5600 6550 5650 6550
Connection ~ 5650 6550
Wire Wire Line
	6700 6200 6700 6150
Wire Wire Line
	6700 6150 6350 6150
Connection ~ 6350 6150
Wire Wire Line
	6350 6150 6350 6050
$Comp
L Device:C C12
U 1 1 61152D23
P 5300 7200
F 0 "C12" H 5050 7250 50  0000 L CNN
F 1 "0.1uF" H 4950 7150 50  0000 L CNN
F 2 "Capacitor_SMD:C_0603_1608Metric_Pad1.05x0.95mm_HandSolder" H 5338 7050 50  0001 C CNN
F 3 "~" H 5300 7200 50  0001 C CNN
F 4 "C0603C104M5RACTU" H -3350 5850 50  0001 C CNN "PN"
	1    5300 7200
	1    0    0    -1  
$EndComp
$Comp
L Device:R R18
U 1 1 61152D2B
P 5650 7200
F 0 "R18" H 5720 7246 50  0000 L CNN
F 1 "10k" H 5720 7155 50  0000 L CNN
F 2 "Resistor_SMD:R_0603_1608Metric_Pad1.05x0.95mm_HandSolder" V 5580 7200 50  0001 C CNN
F 3 "~" H 5650 7200 50  0001 C CNN
F 4 "ERA-3VRW1002V" H 3000 3250 50  0001 C CNN "PN"
	1    5650 7200
	-1   0    0    1   
$EndComp
Wire Wire Line
	5650 7050 5650 7000
Wire Wire Line
	5650 6750 5700 6750
Wire Wire Line
	5600 6750 5650 6750
Connection ~ 5650 6750
Wire Wire Line
	5300 7050 5300 7000
Wire Wire Line
	5300 7000 5650 7000
Connection ~ 5650 7000
Wire Wire Line
	5650 7000 5650 6750
$Comp
L power:GND #PWR059
U 1 1 612494B7
P 5650 7450
F 0 "#PWR059" H 5650 7200 50  0001 C CNN
F 1 "GND" H 5655 7277 50  0000 C CNN
F 2 "" H 5650 7450 50  0001 C CNN
F 3 "" H 5650 7450 50  0001 C CNN
	1    5650 7450
	1    0    0    -1  
$EndComp
Wire Wire Line
	5650 7450 5650 7400
Wire Wire Line
	5650 7400 5300 7400
Wire Wire Line
	5300 7400 5300 7350
Connection ~ 5650 7400
Wire Wire Line
	5650 7400 5650 7350
Wire Wire Line
	5150 6600 5200 6600
Wire Wire Line
	5200 6600 5200 6550
Wire Wire Line
	5200 6550 5300 6550
Wire Wire Line
	5150 6700 5200 6700
Wire Wire Line
	5200 6700 5200 6750
Wire Wire Line
	5200 6750 5300 6750
Text Notes 4900 6300 0    39   ~ 0
NOTE:\nPLACE TC1047VNBTR\nCLOSE TO REF. JOINT
$Comp
L Device:R R17
U 1 1 612CF995
P 5450 6750
F 0 "R17" H 5520 6796 50  0000 L CNN
F 1 "1M5" H 5520 6705 50  0000 L CNN
F 2 "Resistor_SMD:R_0805_2012Metric" V 5380 6750 50  0001 C CNN
F 3 "~" H 5450 6750 50  0001 C CNN
F 4 "CPF0805B1M5E" H 2800 2800 50  0001 C CNN "PN"
	1    5450 6750
	0    1    1    0   
$EndComp
Text Label 8100 3000 0    39   ~ 0
TC_OUT
Wire Notes Line
	4800 5950 4800 7700
Wire Notes Line
	4800 7700 6950 7700
Wire Notes Line
	6950 7700 6950 5950
Wire Notes Line
	6950 5950 4800 5950
Wire Notes Line
	4750 7700 550  7700
Wire Notes Line
	4750 5950 4750 7700
Wire Notes Line
	550  5950 550  7700
Text Notes 4800 5950 0    39   ~ 0
THERMOCOUPLE
Wire Wire Line
	3700 6350 3850 6350
Wire Wire Line
	8350 850  8550 850 
Wire Wire Line
	8100 3100 8650 3100
Wire Wire Line
	8100 4200 8650 4200
Wire Wire Line
	8100 4300 8650 4300
Wire Wire Line
	8650 4400 8100 4400
Wire Wire Line
	8100 3000 8650 3000
Wire Wire Line
	10600 3500 10600 3700
Wire Wire Line
	9950 3700 10600 3700
Wire Wire Line
	10300 3600 9950 3600
Wire Wire Line
	2600 7250 2700 7250
$Comp
L power:GND #PWR07
U 1 1 606601E4
P 2100 4250
F 0 "#PWR07" H 2100 4000 50  0001 C CNN
F 1 "GND" H 2105 4077 50  0000 C CNN
F 2 "" H 2100 4250 50  0001 C CNN
F 3 "" H 2100 4250 50  0001 C CNN
	1    2100 4250
	1    0    0    -1  
$EndComp
$Comp
L little_temp:ESP32-WROOM-32 U1
U 1 1 6060E78E
P 2100 2800
F 0 "U1" H 1650 4150 50  0000 C CNN
F 1 "ESP32-WROOM-32" H 2500 4150 50  0000 C CNN
F 2 "RF_Module:ESP32-WROOM-32" H 2100 1300 50  0001 C CNN
F 3 "https://www.espressif.com/sites/default/files/documentation/esp32-wroom-32_datasheet_en.pdf" H 1800 2850 50  0001 C CNN
F 4 "ESP32-WROOM-32E(M113EH3200PH3Q0)" H 2100 2800 50  0001 C CNN "PN"
	1    2100 2800
	1    0    0    -1  
$EndComp
$Comp
L Device:D_Schottky_x2_KCom_AAK D3
U 1 1 616FFFC5
P 3850 950
F 0 "D3" H 3850 1167 50  0000 C CNN
F 1 "2xSchottky" H 3850 1076 50  0000 C CNN
F 2 "Package_TO_SOT_SMD:SOT-23_Handsoldering" H 3850 950 50  0001 C CNN
F 3 "~" H 3850 950 50  0001 C CNN
F 4 "SDM40E20LC-7" H 3850 950 50  0001 C CNN "PN"
	1    3850 950 
	1    0    0    -1  
$EndComp
Wire Wire Line
	3400 800  3400 950 
Wire Wire Line
	3400 950  3550 950 
Wire Wire Line
	4250 800  4250 950 
Wire Wire Line
	4250 950  4150 950 
Wire Wire Line
	3850 1150 3850 1550
$Comp
L power:+3V3 #PWR064
U 1 1 6186D86B
P 10900 3550
F 0 "#PWR064" H 10900 3400 50  0001 C CNN
F 1 "+3V3" H 10915 3723 50  0000 C CNN
F 2 "" H 10900 3550 50  0001 C CNN
F 3 "" H 10900 3550 50  0001 C CNN
	1    10900 3550
	1    0    0    -1  
$EndComp
Wire Wire Line
	9950 4200 10550 4200
Wire Wire Line
	10900 3950 10900 4050
Wire Wire Line
	10900 4050 10550 4050
Wire Wire Line
	10550 4050 10550 4200
Connection ~ 10550 4200
Wire Wire Line
	10550 4200 10900 4200
Wire Wire Line
	10900 3650 10900 3550
$Comp
L power:GND #PWR063
U 1 1 618C971E
P 4200 7350
F 0 "#PWR063" H 4200 7100 50  0001 C CNN
F 1 "GND" H 4205 7177 50  0000 C CNN
F 2 "" H 4200 7350 50  0001 C CNN
F 3 "" H 4200 7350 50  0001 C CNN
	1    4200 7350
	1    0    0    -1  
$EndComp
Wire Wire Line
	4200 7350 4200 7300
$Comp
L power:+5V #PWR025
U 1 1 618FEB29
P 1300 6200
F 0 "#PWR025" H 1300 6050 50  0001 C CNN
F 1 "+5V" H 1315 6373 50  0000 C CNN
F 2 "" H 1300 6200 50  0001 C CNN
F 3 "" H 1300 6200 50  0001 C CNN
	1    1300 6200
	1    0    0    -1  
$EndComp
Wire Wire Line
	1300 6200 1300 6300
Wire Wire Line
	1300 6300 1650 6300
Connection ~ 1650 6300
Wire Wire Line
	1650 6300 1650 6650
$Comp
L power:+5V #PWR062
U 1 1 6192347D
P 3400 800
F 0 "#PWR062" H 3400 650 50  0001 C CNN
F 1 "+5V" H 3415 973 50  0000 C CNN
F 2 "" H 3400 800 50  0001 C CNN
F 3 "" H 3400 800 50  0001 C CNN
	1    3400 800 
	1    0    0    -1  
$EndComp
NoConn ~ 9950 4500
Wire Bus Line
	900  3800 900  4250
Wire Bus Line
	2850 3650 2850 4050
Text Label 3850 1450 1    39   ~ 0
SUPPLY
$EndSCHEMATC
