(module SW_TH_Tactile_Omron_B3F-10xx (layer F.Cu) (tedit 606F1F98)
  (descr SW_TH_Tactile_Omron_B3F-10xx_https://www.omron.com/ecb/products/pdf/en-b3f.pdf)
  (tags "Omron B3F-10xx")
  (fp_text reference REF** (at 3.25 -2.05) (layer F.SilkS)
    (effects (font (size 1 1) (thickness 0.15)))
  )
  (fp_text value SW_TH_Tactile_Omron_B3F-10xx (at 3.2 6.5) (layer F.Fab)
    (effects (font (size 1 1) (thickness 0.15)))
  )
  (fp_line (start 0.25 -0.75) (end 0.25 5.25) (layer F.Fab) (width 0.1))
  (fp_line (start 6.25 -0.75) (end 6.25 5.25) (layer F.Fab) (width 0.1))
  (fp_line (start 0.25 -0.75) (end 6.25 -0.75) (layer F.Fab) (width 0.1))
  (fp_text user %R (at 3.25 2.25) (layer F.Fab)
    (effects (font (size 1 1) (thickness 0.15)))
  )
  (fp_line (start 7.6 -1.15) (end -1.1 -1.15) (layer F.CrtYd) (width 0.05))
  (fp_line (start 7.6 5.6) (end 7.6 -1.15) (layer F.CrtYd) (width 0.05))
  (fp_line (start -1.1 5.6) (end 7.6 5.6) (layer F.CrtYd) (width 0.05))
  (fp_line (start -1.1 -1.15) (end -1.1 5.6) (layer F.CrtYd) (width 0.05))
  (fp_circle (center 3.25 2.25) (end 4.25 3.25) (layer F.SilkS) (width 0.12))
  (fp_line (start 0.28 5.37) (end 6.22 5.37) (layer F.SilkS) (width 0.12))
  (fp_line (start 0.28 -0.87) (end 6.22 -0.87) (layer F.SilkS) (width 0.12))
  (fp_line (start 0.13 3.59) (end 0.13 0.91) (layer F.SilkS) (width 0.12))
  (fp_line (start 6.37 0.91) (end 6.37 3.59) (layer F.SilkS) (width 0.12))
  (fp_line (start 0.25 5.25) (end 6.25 5.25) (layer F.Fab) (width 0.1))
  (pad 4 thru_hole circle (at 6.5 4.5) (size 1.7 1.7) (drill 1) (layers *.Cu *.Mask))
  (pad 3 thru_hole circle (at 0 4.5) (size 1.7 1.7) (drill 1) (layers *.Cu *.Mask))
  (pad 2 thru_hole circle (at 6.5 0) (size 1.7 1.7) (drill 1) (layers *.Cu *.Mask))
  (pad 1 thru_hole circle (at 0 0) (size 1.7 1.7) (drill 1) (layers *.Cu *.Mask))
  (model ${KISYS3DMOD}/Button_Switch_THT.3dshapes/SW_TH_Tactile_Omron_B3F-10xx.wrl
    (at (xyz 0 0 0))
    (scale (xyz 1 1 1))
    (rotate (xyz 0 0 0))
  )
)
